{
    "activeSoundProfile": "MuseScore Basic",
    "aux": [
        {
            "out": {
                "balance": 0,
                "fxChain": {
                    "0": {
                        "active": true,
                        "chainOrder": 0,
                        "resourceMeta": {
                            "attributes": {
                            },
                            "hasNativeEditorSupport": true,
                            "id": "Muse Reverb",
                            "type": "muse_plugin",
                            "vendor": "Muse"
                        },
                        "unitConfiguration": {
                        }
                    }
                },
                "volumeDb": 0
            },
            "soloMuteState": {
                "mute": false,
                "solo": false
            }
        },
        {
            "out": {
                "balance": 0,
                "fxChain": {
                },
                "volumeDb": 0
            },
            "soloMuteState": {
                "mute": false,
                "solo": false
            }
        }
    ],
    "master": {
        "balance": 0,
        "fxChain": {
        },
        "volumeDb": 0
    },
    "tracks": [
        {
            "in": {
                "resourceMeta": {
                    "attributes": {
                    },
                    "hasNativeEditorSupport": false,
                    "id": "MS Basic",
                    "type": "fluid_soundfont",
                    "vendor": "Fluid"
                },
                "unitConfiguration": {
                }
            },
            "instrumentId": "electric-guitar",
            "out": {
                "auxSends": [
                    {
                        "active": true,
                        "signalAmount": 0.30000001192092896
                    },
                    {
                        "active": true,
                        "signalAmount": 0.30000001192092896
                    }
                ],
                "balance": -0.10000000149011612,
                "fxChain": {
                },
                "volumeDb": 0
            },
            "partId": "4",
            "soloMuteState": {
                "mute": false,
                "solo": false
            }
        },
        {
            "in": {
                "resourceMeta": {
                    "attributes": {
                    },
                    "hasNativeEditorSupport": false,
                    "id": "MS Basic",
                    "type": "fluid_soundfont",
                    "vendor": "Fluid"
                },
                "unitConfiguration": {
                }
            },
            "instrumentId": "bass-guitar",
            "out": {
                "auxSends": [
                    {
                        "active": true,
                        "signalAmount": 0.30000001192092896
                    },
                    {
                        "active": true,
                        "signalAmount": 0.30000001192092896
                    }
                ],
                "balance": 0.10000000149011612,
                "fxChain": {
                },
                "volumeDb": 1.399999976158142
            },
            "partId": "5",
            "soloMuteState": {
                "mute": false,
                "solo": false
            }
        },
        {
            "in": {
                "resourceMeta": {
                    "attributes": {
                    },
                    "hasNativeEditorSupport": false,
                    "id": "MS Basic",
                    "type": "fluid_soundfont",
                    "vendor": "Fluid"
                },
                "unitConfiguration": {
                }
            },
            "instrumentId": "drumset",
            "out": {
                "auxSends": [
                    {
                        "active": true,
                        "signalAmount": 0.30000001192092896
                    },
                    {
                        "active": true,
                        "signalAmount": 0.30000001192092896
                    }
                ],
                "balance": 0,
                "fxChain": {
                },
                "volumeDb": 0
            },
            "partId": "6",
            "soloMuteState": {
                "mute": false,
                "solo": false
            }
        },
        {
            "in": {
                "resourceMeta": {
                    "attributes": {
                    },
                    "hasNativeEditorSupport": false,
                    "id": "MS Basic",
                    "type": "fluid_soundfont",
                    "vendor": "Fluid"
                },
                "unitConfiguration": {
                }
            },
            "instrumentId": "metronome",
            "out": {
                "balance": 0,
                "fxChain": {
                },
                "volumeDb": 0
            },
            "partId": "999",
            "soloMuteState": {
                "mute": false,
                "solo": false
            }
        },
        {
            "in": {
                "resourceMeta": {
                    "attributes": {
                    },
                    "hasNativeEditorSupport": false,
                    "id": "MS Basic",
                    "type": "fluid_soundfont",
                    "vendor": "Fluid"
                },
                "unitConfiguration": {
                }
            },
            "instrumentId": "chord_symbols",
            "out": {
                "auxSends": [
                    {
                        "active": true,
                        "signalAmount": 0.30000001192092896
                    },
                    {
                        "active": true,
                        "signalAmount": 0.30000001192092896
                    }
                ],
                "balance": 0,
                "fxChain": {
                },
                "volumeDb": 0
            },
            "partId": "4",
            "soloMuteState": {
                "mute": false,
                "solo": false
            }
        }
    ]
}
