<?xml version="1.0" encoding="UTF-8"?>
<!DOCTYPE score-partwise PUBLIC "-//Recordare//DTD MusicXML 3.1 Partwise//EN" "http://www.musicxml.org/dtds/partwise.dtd">
<score-partwise version="3.1">
  <work>
    <work-title>Funk Drum Loop 80 BPM
</work-title>
    </work>
  <identification>
    <creator type="composer">Coong</creator>
    <encoding>
      <software>MuseScore 3.6.2</software>
      <supports element="accidental" type="yes"/>
      <supports element="beam" type="yes"/>
      <supports element="print" attribute="new-page" type="yes" value="yes"/>
      <supports element="print" attribute="new-system" type="yes" value="yes"/>
      <supports element="stem" type="yes"/>
      </encoding>
    <source>http://musescore.com/user/4249136/scores/3617336</source>
    </identification>
  <defaults>
    <scaling>
      <millimeters>7.05556</millimeters>
      <tenths>40</tenths>
      </scaling>
    <page-layout>
      <page-height>1683.36</page-height>
      <page-width>1190.88</page-width>
      <page-margins type="even">
        <left-margin>56.6929</left-margin>
        <right-margin>56.6929</right-margin>
        <top-margin>56.6929</top-margin>
        <bottom-margin>113.386</bottom-margin>
        </page-margins>
      <page-margins type="odd">
        <left-margin>56.6929</left-margin>
        <right-margin>56.6929</right-margin>
        <top-margin>56.6929</top-margin>
        <bottom-margin>113.386</bottom-margin>
        </page-margins>
      </page-layout>
    <word-font font-family="Edwin" font-size="10"/>
    <lyric-font font-family="Edwin" font-size="10"/>
    </defaults>
  <credit page="1">
    <credit-type>title</credit-type>
    <credit-words default-x="595.44" default-y="1626.67" justify="center" valign="top" font-size="22">Funk Drum  </credit-words>
    </credit>
  <credit page="1">
    <credit-type>composer</credit-type>
    <credit-words default-x="1134.19" default-y="1492.7" justify="right" valign="bottom">Coong</credit-words>
    </credit>
  <part-list>
    <score-part id="P1">
      <part-name>Drumset</part-name>
      <part-abbreviation>Drs.</part-abbreviation>
      <score-instrument id="P1-I36">
        <instrument-name>Acoustic Bass Drum</instrument-name>
        </score-instrument>
      <score-instrument id="P1-I37">
        <instrument-name>Bass Drum 1</instrument-name>
        </score-instrument>
      <score-instrument id="P1-I38">
        <instrument-name>Side Stick</instrument-name>
        </score-instrument>
      <score-instrument id="P1-I39">
        <instrument-name>Acoustic Snare</instrument-name>
        </score-instrument>
      <score-instrument id="P1-I41">
        <instrument-name>Electric Snare</instrument-name>
        </score-instrument>
      <score-instrument id="P1-I42">
        <instrument-name>Low Floor Tom</instrument-name>
        </score-instrument>
      <score-instrument id="P1-I43">
        <instrument-name>Closed Hi-Hat</instrument-name>
        </score-instrument>
      <score-instrument id="P1-I44">
        <instrument-name>High Floor Tom</instrument-name>
        </score-instrument>
      <score-instrument id="P1-I45">
        <instrument-name>Pedal Hi-Hat</instrument-name>
        </score-instrument>
      <score-instrument id="P1-I46">
        <instrument-name>Low Tom</instrument-name>
        </score-instrument>
      <score-instrument id="P1-I47">
        <instrument-name>Open Hi-Hat</instrument-name>
        </score-instrument>
      <score-instrument id="P1-I48">
        <instrument-name>Low-Mid Tom</instrument-name>
        </score-instrument>
      <score-instrument id="P1-I49">
        <instrument-name>Hi-Mid Tom</instrument-name>
        </score-instrument>
      <score-instrument id="P1-I50">
        <instrument-name>Crash Cymbal 1</instrument-name>
        </score-instrument>
      <score-instrument id="P1-I51">
        <instrument-name>High Tom</instrument-name>
        </score-instrument>
      <score-instrument id="P1-I52">
        <instrument-name>Ride Cymbal 1</instrument-name>
        </score-instrument>
      <score-instrument id="P1-I53">
        <instrument-name>Chinese Cymbal</instrument-name>
        </score-instrument>
      <score-instrument id="P1-I54">
        <instrument-name>Ride Bell</instrument-name>
        </score-instrument>
      <score-instrument id="P1-I55">
        <instrument-name>Tambourine</instrument-name>
        </score-instrument>
      <score-instrument id="P1-I56">
        <instrument-name>Splash Cymbal</instrument-name>
        </score-instrument>
      <score-instrument id="P1-I57">
        <instrument-name>Cowbell</instrument-name>
        </score-instrument>
      <score-instrument id="P1-I58">
        <instrument-name>Crash Cymbal 2</instrument-name>
        </score-instrument>
      <score-instrument id="P1-I60">
        <instrument-name>Ride Cymbal 2</instrument-name>
        </score-instrument>
      <score-instrument id="P1-I64">
        <instrument-name>Open Hi Conga</instrument-name>
        </score-instrument>
      <score-instrument id="P1-I65">
        <instrument-name>Low Conga</instrument-name>
        </score-instrument>
      <midi-device port="1"></midi-device>
      <midi-instrument id="P1-I36">
        <midi-channel>10</midi-channel>
        <midi-program>1</midi-program>
        <midi-unpitched>36</midi-unpitched>
        <volume>78.7402</volume>
        <pan>0</pan>
        </midi-instrument>
      <midi-instrument id="P1-I37">
        <midi-channel>10</midi-channel>
        <midi-program>1</midi-program>
        <midi-unpitched>37</midi-unpitched>
        <volume>78.7402</volume>
        <pan>0</pan>
        </midi-instrument>
      <midi-instrument id="P1-I38">
        <midi-channel>10</midi-channel>
        <midi-program>1</midi-program>
        <midi-unpitched>38</midi-unpitched>
        <volume>78.7402</volume>
        <pan>0</pan>
        </midi-instrument>
      <midi-instrument id="P1-I39">
        <midi-channel>10</midi-channel>
        <midi-program>1</midi-program>
        <midi-unpitched>39</midi-unpitched>
        <volume>78.7402</volume>
        <pan>0</pan>
        </midi-instrument>
      <midi-instrument id="P1-I41">
        <midi-channel>10</midi-channel>
        <midi-program>1</midi-program>
        <midi-unpitched>41</midi-unpitched>
        <volume>78.7402</volume>
        <pan>0</pan>
        </midi-instrument>
      <midi-instrument id="P1-I42">
        <midi-channel>10</midi-channel>
        <midi-program>1</midi-program>
        <midi-unpitched>42</midi-unpitched>
        <volume>78.7402</volume>
        <pan>0</pan>
        </midi-instrument>
      <midi-instrument id="P1-I43">
        <midi-channel>10</midi-channel>
        <midi-program>1</midi-program>
        <midi-unpitched>43</midi-unpitched>
        <volume>78.7402</volume>
        <pan>0</pan>
        </midi-instrument>
      <midi-instrument id="P1-I44">
        <midi-channel>10</midi-channel>
        <midi-program>1</midi-program>
        <midi-unpitched>44</midi-unpitched>
        <volume>78.7402</volume>
        <pan>0</pan>
        </midi-instrument>
      <midi-instrument id="P1-I45">
        <midi-channel>10</midi-channel>
        <midi-program>1</midi-program>
        <midi-unpitched>45</midi-unpitched>
        <volume>78.7402</volume>
        <pan>0</pan>
        </midi-instrument>
      <midi-instrument id="P1-I46">
        <midi-channel>10</midi-channel>
        <midi-program>1</midi-program>
        <midi-unpitched>46</midi-unpitched>
        <volume>78.7402</volume>
        <pan>0</pan>
        </midi-instrument>
      <midi-instrument id="P1-I47">
        <midi-channel>10</midi-channel>
        <midi-program>1</midi-program>
        <midi-unpitched>47</midi-unpitched>
        <volume>78.7402</volume>
        <pan>0</pan>
        </midi-instrument>
      <midi-instrument id="P1-I48">
        <midi-channel>10</midi-channel>
        <midi-program>1</midi-program>
        <midi-unpitched>48</midi-unpitched>
        <volume>78.7402</volume>
        <pan>0</pan>
        </midi-instrument>
      <midi-instrument id="P1-I49">
        <midi-channel>10</midi-channel>
        <midi-program>1</midi-program>
        <midi-unpitched>49</midi-unpitched>
        <volume>78.7402</volume>
        <pan>0</pan>
        </midi-instrument>
      <midi-instrument id="P1-I50">
        <midi-channel>10</midi-channel>
        <midi-program>1</midi-program>
        <midi-unpitched>50</midi-unpitched>
        <volume>78.7402</volume>
        <pan>0</pan>
        </midi-instrument>
      <midi-instrument id="P1-I51">
        <midi-channel>10</midi-channel>
        <midi-program>1</midi-program>
        <midi-unpitched>51</midi-unpitched>
        <volume>78.7402</volume>
        <pan>0</pan>
        </midi-instrument>
      <midi-instrument id="P1-I52">
        <midi-channel>10</midi-channel>
        <midi-program>1</midi-program>
        <midi-unpitched>52</midi-unpitched>
        <volume>78.7402</volume>
        <pan>0</pan>
        </midi-instrument>
      <midi-instrument id="P1-I53">
        <midi-channel>10</midi-channel>
        <midi-program>1</midi-program>
        <midi-unpitched>53</midi-unpitched>
        <volume>78.7402</volume>
        <pan>0</pan>
        </midi-instrument>
      <midi-instrument id="P1-I54">
        <midi-channel>10</midi-channel>
        <midi-program>1</midi-program>
        <midi-unpitched>54</midi-unpitched>
        <volume>78.7402</volume>
        <pan>0</pan>
        </midi-instrument>
      <midi-instrument id="P1-I55">
        <midi-channel>10</midi-channel>
        <midi-program>1</midi-program>
        <midi-unpitched>55</midi-unpitched>
        <volume>78.7402</volume>
        <pan>0</pan>
        </midi-instrument>
      <midi-instrument id="P1-I56">
        <midi-channel>10</midi-channel>
        <midi-program>1</midi-program>
        <midi-unpitched>56</midi-unpitched>
        <volume>78.7402</volume>
        <pan>0</pan>
        </midi-instrument>
      <midi-instrument id="P1-I57">
        <midi-channel>10</midi-channel>
        <midi-program>1</midi-program>
        <midi-unpitched>57</midi-unpitched>
        <volume>78.7402</volume>
        <pan>0</pan>
        </midi-instrument>
      <midi-instrument id="P1-I58">
        <midi-channel>10</midi-channel>
        <midi-program>1</midi-program>
        <midi-unpitched>58</midi-unpitched>
        <volume>78.7402</volume>
        <pan>0</pan>
        </midi-instrument>
      <midi-instrument id="P1-I60">
        <midi-channel>10</midi-channel>
        <midi-program>1</midi-program>
        <midi-unpitched>60</midi-unpitched>
        <volume>78.7402</volume>
        <pan>0</pan>
        </midi-instrument>
      <midi-instrument id="P1-I64">
        <midi-channel>10</midi-channel>
        <midi-program>1</midi-program>
        <midi-unpitched>64</midi-unpitched>
        <volume>78.7402</volume>
        <pan>0</pan>
        </midi-instrument>
      <midi-instrument id="P1-I65">
        <midi-channel>10</midi-channel>
        <midi-program>1</midi-program>
        <midi-unpitched>65</midi-unpitched>
        <volume>78.7402</volume>
        <pan>0</pan>
        </midi-instrument>
      </score-part>
    </part-list>
  <part id="P1">
    <measure number="1" width="580.57">
      <print>
        <system-layout>
          <system-margins>
            <left-margin>0.00</left-margin>
            <right-margin>0.00</right-margin>
            </system-margins>
          <top-system-distance>204.97</top-system-distance>
          </system-layout>
        </print>
      <attributes>
        <divisions>4</divisions>
        <key>
          <fifths>0</fifths>
          </key>
        <time>
          <beats>4</beats>
          <beat-type>4</beat-type>
          </time>
        <clef>
          <sign>percussion</sign>
          <line>2</line>
          </clef>
        </attributes>
      <direction placement="above">
        <direction-type>
          <metronome parentheses="no" default-x="-37.68" default-y="27.80" relative-y="20.00">
            <beat-unit>quarter</beat-unit>
            <per-minute>100</per-minute>
            </metronome>
          </direction-type>
        <sound tempo="100"/>
        </direction>
      <direction placement="above">
        <direction-type>
          <rehearsal default-x="-20.55" relative-y="30.00" font-weight="bold" font-size="14">1</rehearsal>
          </direction-type>
        </direction>
      <note default-x="67.61" default-y="5.00">
        <unpitched>
          <display-step>G</display-step>
          <display-octave>5</display-octave>
          </unpitched>
        <duration>1</duration>
        <instrument id="P1-I43"/>
        <voice>1</voice>
        <type>16th</type>
        <stem>up</stem>
        <notehead>x</notehead>
        <beam number="1">begin</beam>
        <beam number="2">begin</beam>
        <notations>
          <tuplet type="start" number="1" bracket="no" show-number="none">
            <tuplet-actual>
              <tuplet-number>4</tuplet-number>
              <tuplet-type>16th</tuplet-type>
              </tuplet-actual>
            <tuplet-normal>
              <tuplet-number>4</tuplet-number>
              <tuplet-type>16th</tuplet-type>
              </tuplet-normal>
            </tuplet>
          <tuplet type="start" number="2" bracket="no">
            <tuplet-actual>
              <tuplet-number>4</tuplet-number>
              <tuplet-type>16th</tuplet-type>
              </tuplet-actual>
            <tuplet-normal>
              <tuplet-number>4</tuplet-number>
              <tuplet-type>16th</tuplet-type>
              </tuplet-normal>
            </tuplet>
          </notations>
        </note>
      <note default-x="103.73" default-y="5.00">
        <unpitched>
          <display-step>G</display-step>
          <display-octave>5</display-octave>
          </unpitched>
        <duration>1</duration>
        <instrument id="P1-I43"/>
        <voice>1</voice>
        <type>16th</type>
        <stem>up</stem>
        <notehead parentheses="yes">x</notehead>
        <beam number="1">continue</beam>
        <beam number="2">continue</beam>
        </note>
      <note default-x="139.85" default-y="5.00">
        <unpitched>
          <display-step>G</display-step>
          <display-octave>5</display-octave>
          </unpitched>
        <duration>1</duration>
        <instrument id="P1-I43"/>
        <voice>1</voice>
        <type>16th</type>
        <stem>up</stem>
        <notehead>x</notehead>
        <beam number="1">continue</beam>
        <beam number="2">continue</beam>
        </note>
      <note default-x="175.97" default-y="5.00">
        <unpitched>
          <display-step>G</display-step>
          <display-octave>5</display-octave>
          </unpitched>
        <duration>1</duration>
        <instrument id="P1-I43"/>
        <voice>1</voice>
        <type>16th</type>
        <stem>up</stem>
        <notehead parentheses="yes">x</notehead>
        <beam number="1">end</beam>
        <beam number="2">end</beam>
        <notations>
          <tuplet type="stop" number="1"/>
          <tuplet type="stop" number="2"/>
          </notations>
        </note>
      <note default-x="212.09" default-y="5.00">
        <unpitched>
          <display-step>G</display-step>
          <display-octave>5</display-octave>
          </unpitched>
        <duration>4</duration>
        <instrument id="P1-I43"/>
        <voice>1</voice>
        <type>quarter</type>
        <stem>up</stem>
        <notehead>x</notehead>
        <notations>
          <ornaments>
            <tremolo type="single">2</tremolo>
            </ornaments>
          </notations>
        </note>
      <note default-x="318.69" default-y="5.00">
        <unpitched>
          <display-step>G</display-step>
          <display-octave>5</display-octave>
          </unpitched>
        <duration>4</duration>
        <instrument id="P1-I43"/>
        <voice>1</voice>
        <type>quarter</type>
        <stem>up</stem>
        <notehead>x</notehead>
        <notations>
          <ornaments>
            <tremolo type="single">2</tremolo>
            </ornaments>
          </notations>
        </note>
      <note default-x="463.18" default-y="5.00">
        <unpitched>
          <display-step>G</display-step>
          <display-octave>5</display-octave>
          </unpitched>
        <duration>4</duration>
        <instrument id="P1-I43"/>
        <voice>1</voice>
        <type>quarter</type>
        <stem>up</stem>
        <notehead>x</notehead>
        <notations>
          <ornaments>
            <tremolo type="single">2</tremolo>
            </ornaments>
          </notations>
        </note>
      <backup>
        <duration>16</duration>
        </backup>
      <note default-x="67.61" default-y="-35.00">
        <unpitched>
          <display-step>F</display-step>
          <display-octave>4</display-octave>
          </unpitched>
        <duration>2</duration>
        <instrument id="P1-I36"/>
        <voice>2</voice>
        <type>eighth</type>
        <stem>down</stem>
        <beam number="1">begin</beam>
        </note>
      <note default-x="139.85" default-y="-35.00">
        <unpitched>
          <display-step>F</display-step>
          <display-octave>4</display-octave>
          </unpitched>
        <duration>2</duration>
        <instrument id="P1-I36"/>
        <voice>2</voice>
        <type>eighth</type>
        <stem>down</stem>
        <beam number="1">end</beam>
        </note>
      <note default-x="212.09" default-y="-15.00">
        <unpitched>
          <display-step>C</display-step>
          <display-octave>5</display-octave>
          </unpitched>
        <duration>3</duration>
        <instrument id="P1-I39"/>
        <voice>2</voice>
        <type>eighth</type>
        <dot/>
        <stem>down</stem>
        <beam number="1">begin</beam>
        </note>
      <note default-x="282.57" default-y="-35.00">
        <unpitched>
          <display-step>F</display-step>
          <display-octave>4</display-octave>
          </unpitched>
        <duration>1</duration>
        <instrument id="P1-I36"/>
        <voice>2</voice>
        <type>16th</type>
        <stem>down</stem>
        <beam number="1">end</beam>
        <beam number="2">backward hook</beam>
        </note>
      <note>
        <rest/>
        <duration>1</duration>
        <voice>2</voice>
        <type>16th</type>
        </note>
      <note default-x="354.81" default-y="-15.00">
        <unpitched>
          <display-step>C</display-step>
          <display-octave>5</display-octave>
          </unpitched>
        <duration>1</duration>
        <instrument id="P1-I39"/>
        <voice>2</voice>
        <type>16th</type>
        <stem>down</stem>
        <notehead parentheses="yes">normal</notehead>
        <beam number="1">begin</beam>
        <beam number="2">begin</beam>
        </note>
      <note default-x="390.93" default-y="-35.00">
        <unpitched>
          <display-step>F</display-step>
          <display-octave>4</display-octave>
          </unpitched>
        <duration>1</duration>
        <instrument id="P1-I36"/>
        <voice>2</voice>
        <type>16th</type>
        <stem>down</stem>
        <beam number="1">continue</beam>
        <beam number="2">continue</beam>
        </note>
      <note default-x="427.05" default-y="-35.00">
        <unpitched>
          <display-step>F</display-step>
          <display-octave>4</display-octave>
          </unpitched>
        <duration>1</duration>
        <instrument id="P1-I36"/>
        <voice>2</voice>
        <type>16th</type>
        <stem>down</stem>
        <beam number="1">end</beam>
        <beam number="2">end</beam>
        </note>
      <note default-x="463.18" default-y="-15.00">
        <unpitched>
          <display-step>C</display-step>
          <display-octave>5</display-octave>
          </unpitched>
        <duration>2</duration>
        <instrument id="P1-I39"/>
        <voice>2</voice>
        <type>eighth</type>
        <stem>down</stem>
        <beam number="1">begin</beam>
        </note>
      <note default-x="520.97" default-y="-35.00">
        <unpitched>
          <display-step>F</display-step>
          <display-octave>4</display-octave>
          </unpitched>
        <duration>2</duration>
        <instrument id="P1-I37"/>
        <voice>2</voice>
        <type>eighth</type>
        <stem>down</stem>
        <beam number="1">end</beam>
        </note>
      </measure>
    <measure number="2" width="496.93">
      <note>
        <rest/>
        <duration>4</duration>
        <voice>1</voice>
        <type>quarter</type>
        <notations>
          <tuplet type="start" bracket="no" show-number="none"/>
          <tuplet type="stop"/>
          </notations>
        </note>
      <note>
        <rest/>
        <duration>12</duration>
        <voice>1</voice>
        <type>half</type>
        <dot/>
        </note>
      <backup>
        <duration>16</duration>
        </backup>
      <note default-x="12.00" default-y="-35.00">
        <unpitched>
          <display-step>F</display-step>
          <display-octave>4</display-octave>
          </unpitched>
        <duration>2</duration>
        <instrument id="P1-I36"/>
        <voice>2</voice>
        <type>eighth</type>
        <stem>down</stem>
        <beam number="1">begin</beam>
        </note>
      <note default-x="65.27" default-y="-35.00">
        <unpitched>
          <display-step>F</display-step>
          <display-octave>4</display-octave>
          </unpitched>
        <duration>2</duration>
        <instrument id="P1-I36"/>
        <voice>2</voice>
        <type>eighth</type>
        <stem>down</stem>
        <beam number="1">end</beam>
        </note>
      <note default-x="118.54" default-y="-15.00">
        <unpitched>
          <display-step>C</display-step>
          <display-octave>5</display-octave>
          </unpitched>
        <duration>1</duration>
        <instrument id="P1-I39"/>
        <voice>2</voice>
        <type>16th</type>
        <stem>down</stem>
        <beam number="1">begin</beam>
        <beam number="2">forward hook</beam>
        </note>
      <note default-x="151.83" default-y="-15.00">
        <unpitched>
          <display-step>C</display-step>
          <display-octave>5</display-octave>
          </unpitched>
        <duration>2</duration>
        <instrument id="P1-I39"/>
        <voice>2</voice>
        <type>eighth</type>
        <stem>down</stem>
        <beam number="1">continue</beam>
        </note>
      <note default-x="205.10" default-y="-35.00">
        <unpitched>
          <display-step>F</display-step>
          <display-octave>4</display-octave>
          </unpitched>
        <duration>1</duration>
        <instrument id="P1-I36"/>
        <voice>2</voice>
        <type>16th</type>
        <stem>down</stem>
        <beam number="1">end</beam>
        <beam number="2">backward hook</beam>
        </note>
      <note>
        <rest/>
        <duration>1</duration>
        <voice>2</voice>
        <type>16th</type>
        </note>
      <note default-x="271.68" default-y="-15.00">
        <unpitched>
          <display-step>C</display-step>
          <display-octave>5</display-octave>
          </unpitched>
        <duration>1</duration>
        <instrument id="P1-I39"/>
        <voice>2</voice>
        <type>16th</type>
        <stem>down</stem>
        <notehead parentheses="yes">normal</notehead>
        <beam number="1">begin</beam>
        <beam number="2">begin</beam>
        </note>
      <note default-x="304.98" default-y="-35.00">
        <unpitched>
          <display-step>F</display-step>
          <display-octave>4</display-octave>
          </unpitched>
        <duration>1</duration>
        <instrument id="P1-I36"/>
        <voice>2</voice>
        <type>16th</type>
        <stem>down</stem>
        <beam number="1">continue</beam>
        <beam number="2">continue</beam>
        </note>
      <note default-x="338.27" default-y="-35.00">
        <unpitched>
          <display-step>F</display-step>
          <display-octave>4</display-octave>
          </unpitched>
        <duration>1</duration>
        <instrument id="P1-I36"/>
        <voice>2</voice>
        <type>16th</type>
        <stem>down</stem>
        <beam number="1">end</beam>
        <beam number="2">end</beam>
        </note>
      <note default-x="371.56" default-y="-15.00">
        <unpitched>
          <display-step>C</display-step>
          <display-octave>5</display-octave>
          </unpitched>
        <duration>2</duration>
        <instrument id="P1-I39"/>
        <voice>2</voice>
        <type>eighth</type>
        <stem>down</stem>
        <beam number="1">begin</beam>
        </note>
      <note default-x="424.83" default-y="-35.00">
        <unpitched>
          <display-step>F</display-step>
          <display-octave>4</display-octave>
          </unpitched>
        <duration>2</duration>
        <instrument id="P1-I37"/>
        <voice>2</voice>
        <type>eighth</type>
        <stem>down</stem>
        <beam number="1">end</beam>
        </note>
      <barline location="right">
        <bar-style>light-heavy</bar-style>
        <repeat direction="backward"/>
        </barline>
      </measure>
    <measure number="3" width="397.77">
      <print new-system="yes">
        <system-layout>
          <system-margins>
            <left-margin>0.00</left-margin>
            <right-margin>0.00</right-margin>
            </system-margins>
          <system-distance>150.00</system-distance>
          </system-layout>
        </print>
      <barline location="left">
        <bar-style>heavy-light</bar-style>
        <repeat direction="forward"/>
        </barline>
      <direction placement="above">
        <direction-type>
          <rehearsal default-x="-43.83" default-y="14.00" relative-y="30.00" font-weight="bold" font-size="14">2</rehearsal>
          </direction-type>
        </direction>
      <direction placement="above">
        <direction-type>
          <words relative-y="40.00" font-size="12">Swing feel</words>
          </direction-type>
        </direction>
      <note>
        <rest/>
        <duration>4</duration>
        <voice>1</voice>
        <type>quarter</type>
        </note>
      <note>
        <rest/>
        <duration>4</duration>
        <voice>1</voice>
        <type>quarter</type>
        </note>
      <note default-x="177.95" default-y="-15.00">
        <grace slash="yes"/>
        <unpitched>
          <display-step>C</display-step>
          <display-octave>5</display-octave>
          </unpitched>
        <instrument id="P1-I39"/>
        <voice>1</voice>
        <type>eighth</type>
        <stem>up</stem>
        </note>
      <note default-x="197.64" default-y="-15.00">
        <unpitched>
          <display-step>C</display-step>
          <display-octave>5</display-octave>
          </unpitched>
        <duration>1</duration>
        <instrument id="P1-I39"/>
        <voice>1</voice>
        <type>16th</type>
        <stem>down</stem>
        <beam number="1">begin</beam>
        <beam number="2">forward hook</beam>
        </note>
      <note default-x="226.81" default-y="-35.00">
        <unpitched>
          <display-step>F</display-step>
          <display-octave>4</display-octave>
          </unpitched>
        <duration>2</duration>
        <instrument id="P1-I36"/>
        <voice>1</voice>
        <type>eighth</type>
        <stem>down</stem>
        <beam number="1">continue</beam>
        <notations>
          <articulations>
            <staccato/>
            </articulations>
          </notations>
        </note>
      <note default-x="226.81" default-y="-5.00">
        <chord/>
        <unpitched>
          <display-step>E</display-step>
          <display-octave>5</display-octave>
          </unpitched>
        <duration>2</duration>
        <instrument id="P1-I47"/>
        <voice>1</voice>
        <type>eighth</type>
        <stem>down</stem>
        <notehead>x</notehead>
        </note>
      <note default-x="273.47" default-y="-35.00">
        <unpitched>
          <display-step>F</display-step>
          <display-octave>4</display-octave>
          </unpitched>
        <duration>2</duration>
        <instrument id="P1-I36"/>
        <voice>1</voice>
        <type>eighth</type>
        <stem>down</stem>
        <beam number="1">continue</beam>
        <notations>
          <articulations>
            <staccato/>
            </articulations>
          </notations>
        </note>
      <note default-x="273.47" default-y="-5.00">
        <chord/>
        <unpitched>
          <display-step>E</display-step>
          <display-octave>5</display-octave>
          </unpitched>
        <duration>2</duration>
        <instrument id="P1-I47"/>
        <voice>1</voice>
        <type>eighth</type>
        <stem>down</stem>
        <notehead>x</notehead>
        </note>
      <note default-x="320.14" default-y="-35.00">
        <unpitched>
          <display-step>F</display-step>
          <display-octave>4</display-octave>
          </unpitched>
        <duration>2</duration>
        <instrument id="P1-I36"/>
        <voice>1</voice>
        <type>eighth</type>
        <stem>down</stem>
        <beam number="1">continue</beam>
        <notations>
          <articulations>
            <staccato/>
            </articulations>
          </notations>
        </note>
      <note default-x="320.14" default-y="-5.00">
        <chord/>
        <unpitched>
          <display-step>E</display-step>
          <display-octave>5</display-octave>
          </unpitched>
        <duration>2</duration>
        <instrument id="P1-I47"/>
        <voice>1</voice>
        <type>eighth</type>
        <stem>down</stem>
        <notehead>x</notehead>
        </note>
      <note default-x="366.81" default-y="-35.00">
        <unpitched>
          <display-step>F</display-step>
          <display-octave>4</display-octave>
          </unpitched>
        <duration>1</duration>
        <instrument id="P1-I36"/>
        <voice>1</voice>
        <type>16th</type>
        <stem>down</stem>
        <beam number="1">end</beam>
        <beam number="2">backward hook</beam>
        </note>
      </measure>
    <measure number="4" width="439.91">
      <note>
        <rest/>
        <duration>2</duration>
        <voice>1</voice>
        <type>eighth</type>
        </note>
      <note default-x="60.70" default-y="5.00">
        <unpitched>
          <display-step>G</display-step>
          <display-octave>5</display-octave>
          </unpitched>
        <duration>4</duration>
        <instrument id="P1-I43"/>
        <voice>1</voice>
        <type>quarter</type>
        <stem>up</stem>
        <notehead>x</notehead>
        </note>
      <note default-x="158.09" default-y="5.00">
        <unpitched>
          <display-step>G</display-step>
          <display-octave>5</display-octave>
          </unpitched>
        <duration>4</duration>
        <instrument id="P1-I43"/>
        <voice>1</voice>
        <type>quarter</type>
        <stem>up</stem>
        <notehead>x</notehead>
        </note>
      <note default-x="279.84" default-y="5.00">
        <unpitched>
          <display-step>G</display-step>
          <display-octave>5</display-octave>
          </unpitched>
        <duration>4</duration>
        <instrument id="P1-I43"/>
        <voice>1</voice>
        <type>quarter</type>
        <stem>up</stem>
        <notehead>x</notehead>
        </note>
      <note default-x="377.23" default-y="5.00">
        <unpitched>
          <display-step>G</display-step>
          <display-octave>5</display-octave>
          </unpitched>
        <duration>2</duration>
        <instrument id="P1-I43"/>
        <voice>1</voice>
        <type>eighth</type>
        <stem>up</stem>
        <notehead>x</notehead>
        </note>
      <backup>
        <duration>16</duration>
        </backup>
      <note default-x="12.00" default-y="-35.00">
        <unpitched>
          <display-step>F</display-step>
          <display-octave>4</display-octave>
          </unpitched>
        <duration>4</duration>
        <instrument id="P1-I36"/>
        <voice>2</voice>
        <type>quarter</type>
        <stem>down</stem>
        </note>
      <note default-x="109.40" default-y="-15.00">
        <unpitched>
          <display-step>C</display-step>
          <display-octave>5</display-octave>
          </unpitched>
        <duration>3</duration>
        <instrument id="P1-I39"/>
        <voice>2</voice>
        <type>eighth</type>
        <dot/>
        <stem>down</stem>
        <beam number="1">begin</beam>
        </note>
      <note default-x="188.53" default-y="-15.00">
        <unpitched>
          <display-step>C</display-step>
          <display-octave>5</display-octave>
          </unpitched>
        <duration>1</duration>
        <instrument id="P1-I39"/>
        <voice>2</voice>
        <type>16th</type>
        <stem>down</stem>
        <notehead parentheses="yes">normal</notehead>
        <beam number="1">end</beam>
        <beam number="2">backward hook</beam>
        </note>
      <note default-x="218.97" default-y="-35.00">
        <unpitched>
          <display-step>F</display-step>
          <display-octave>4</display-octave>
          </unpitched>
        <duration>1</duration>
        <instrument id="P1-I36"/>
        <voice>2</voice>
        <type>16th</type>
        <stem>down</stem>
        <beam number="1">begin</beam>
        <beam number="2">forward hook</beam>
        </note>
      <note default-x="249.40" default-y="-15.00">
        <unpitched>
          <display-step>C</display-step>
          <display-octave>5</display-octave>
          </unpitched>
        <duration>3</duration>
        <instrument id="P1-I39"/>
        <voice>2</voice>
        <type>eighth</type>
        <dot/>
        <stem>down</stem>
        <notehead parentheses="yes">normal</notehead>
        <beam number="1">end</beam>
        </note>
      <note default-x="328.54" default-y="-15.00">
        <unpitched>
          <display-step>C</display-step>
          <display-octave>5</display-octave>
          </unpitched>
        <duration>3</duration>
        <instrument id="P1-I39"/>
        <voice>2</voice>
        <type>eighth</type>
        <dot/>
        <stem>down</stem>
        <beam number="1">begin</beam>
        </note>
      <note default-x="407.67" default-y="-15.00">
        <unpitched>
          <display-step>C</display-step>
          <display-octave>5</display-octave>
          </unpitched>
        <duration>1</duration>
        <instrument id="P1-I39"/>
        <voice>2</voice>
        <type>16th</type>
        <stem>down</stem>
        <notehead parentheses="yes">normal</notehead>
        <beam number="1">end</beam>
        <beam number="2">backward hook</beam>
        </note>
      </measure>
    <measure number="5" width="239.81">
      <forward>
        <duration>16</duration>
        </forward>
      <barline location="right">
        <bar-style>light-heavy</bar-style>
        <repeat direction="backward"/>
        </barline>
      </measure>
    <measure number="6" width="577.28">
      <print new-system="yes">
        <system-layout>
          <system-margins>
            <left-margin>0.00</left-margin>
            <right-margin>0.00</right-margin>
            </system-margins>
          <system-distance>150.00</system-distance>
          </system-layout>
        </print>
      <barline location="left">
        <bar-style>heavy-light</bar-style>
        <repeat direction="forward"/>
        </barline>
      <direction placement="above">
        <direction-type>
          <words default-y="18.35" relative-y="40.00" font-size="12">Swing feel</words>
          </direction-type>
        </direction>
      <note>
        <rest/>
        <duration>2</duration>
        <voice>1</voice>
        <type>eighth</type>
        </note>
      <note default-x="139.61" default-y="5.00">
        <unpitched>
          <display-step>G</display-step>
          <display-octave>5</display-octave>
          </unpitched>
        <duration>4</duration>
        <instrument id="P1-I43"/>
        <voice>1</voice>
        <type>quarter</type>
        <stem>up</stem>
        <notehead>x</notehead>
        </note>
      <note default-x="252.09" default-y="5.00">
        <unpitched>
          <display-step>G</display-step>
          <display-octave>5</display-octave>
          </unpitched>
        <duration>2</duration>
        <instrument id="P1-I43"/>
        <voice>1</voice>
        <type>eighth</type>
        <stem>up</stem>
        <notehead>x</notehead>
        </note>
      <note>
        <rest/>
        <duration>8</duration>
        <voice>1</voice>
        <type>half</type>
        </note>
      <backup>
        <duration>16</duration>
        </backup>
      <note default-x="69.31" default-y="-35.00">
        <unpitched>
          <display-step>F</display-step>
          <display-octave>4</display-octave>
          </unpitched>
        <duration>1</duration>
        <instrument id="P1-I36"/>
        <voice>2</voice>
        <type>16th</type>
        <stem>down</stem>
        <beam number="1">begin</beam>
        <beam number="2">begin</beam>
        </note>
      <note default-x="104.46" default-y="-15.00">
        <unpitched>
          <display-step>C</display-step>
          <display-octave>5</display-octave>
          </unpitched>
        <duration>1</duration>
        <instrument id="P1-I39"/>
        <voice>2</voice>
        <type>16th</type>
        <stem>down</stem>
        <notehead parentheses="yes">normal</notehead>
        <beam number="1">continue</beam>
        <beam number="2">end</beam>
        </note>
      <note default-x="139.61" default-y="-15.00">
        <unpitched>
          <display-step>C</display-step>
          <display-octave>5</display-octave>
          </unpitched>
        <duration>2</duration>
        <instrument id="P1-I39"/>
        <voice>2</voice>
        <type>eighth</type>
        <stem>down</stem>
        <notehead parentheses="yes">normal</notehead>
        <beam number="1">end</beam>
        </note>
      <note default-x="195.85" default-y="-15.00">
        <unpitched>
          <display-step>C</display-step>
          <display-octave>5</display-octave>
          </unpitched>
        <duration>3</duration>
        <instrument id="P1-I39"/>
        <voice>2</voice>
        <type>eighth</type>
        <dot/>
        <stem>down</stem>
        <beam number="1">begin</beam>
        </note>
      <note default-x="287.24" default-y="-15.00">
        <unpitched>
          <display-step>C</display-step>
          <display-octave>5</display-octave>
          </unpitched>
        <duration>1</duration>
        <instrument id="P1-I39"/>
        <voice>2</voice>
        <type>16th</type>
        <stem>down</stem>
        <notehead parentheses="yes">normal</notehead>
        <beam number="1">end</beam>
        <beam number="2">backward hook</beam>
        </note>
      <note default-x="322.40" default-y="-35.00">
        <unpitched>
          <display-step>F</display-step>
          <display-octave>4</display-octave>
          </unpitched>
        <duration>1</duration>
        <instrument id="P1-I36"/>
        <voice>2</voice>
        <type>16th</type>
        <stem>down</stem>
        <beam number="1">begin</beam>
        <beam number="2">begin</beam>
        </note>
      <note default-x="357.55" default-y="-15.00">
        <unpitched>
          <display-step>C</display-step>
          <display-octave>5</display-octave>
          </unpitched>
        <duration>1</duration>
        <instrument id="P1-I39"/>
        <voice>2</voice>
        <type>16th</type>
        <stem>down</stem>
        <beam number="1">continue</beam>
        <beam number="2">end</beam>
        </note>
      <note default-x="392.70" default-y="-15.00">
        <unpitched>
          <display-step>C</display-step>
          <display-octave>5</display-octave>
          </unpitched>
        <duration>2</duration>
        <instrument id="P1-I39"/>
        <voice>2</voice>
        <type>eighth</type>
        <stem>down</stem>
        <beam number="1">end</beam>
        </note>
      <note default-x="448.94" default-y="-15.00">
        <unpitched>
          <display-step>C</display-step>
          <display-octave>5</display-octave>
          </unpitched>
        <duration>1</duration>
        <instrument id="P1-I39"/>
        <voice>2</voice>
        <type>16th</type>
        <stem>down</stem>
        <beam number="1">begin</beam>
        <beam number="2">begin</beam>
        </note>
      <note default-x="484.09" default-y="-15.00">
        <unpitched>
          <display-step>C</display-step>
          <display-octave>5</display-octave>
          </unpitched>
        <duration>1</duration>
        <instrument id="P1-I39"/>
        <voice>2</voice>
        <type>16th</type>
        <stem>down</stem>
        <beam number="1">continue</beam>
        <beam number="2">end</beam>
        </note>
      <note default-x="519.24" default-y="-35.00">
        <unpitched>
          <display-step>F</display-step>
          <display-octave>4</display-octave>
          </unpitched>
        <duration>2</duration>
        <instrument id="P1-I36"/>
        <voice>2</voice>
        <type>eighth</type>
        <stem>down</stem>
        <beam number="1">end</beam>
        </note>
      </measure>
    <measure number="7" width="500.21">
      <note>
        <rest measure="yes"/>
        <duration>16</duration>
        <voice>1</voice>
        </note>
      <backup>
        <duration>16</duration>
        </backup>
      <note default-x="17.56" default-y="-35.00">
        <unpitched>
          <display-step>F</display-step>
          <display-octave>4</display-octave>
          </unpitched>
        <duration>2</duration>
        <instrument id="P1-I36"/>
        <voice>2</voice>
        <type>eighth</type>
        <stem>down</stem>
        <beam number="1">begin</beam>
        </note>
      <note default-x="71.53" default-y="-35.00">
        <unpitched>
          <display-step>F</display-step>
          <display-octave>4</display-octave>
          </unpitched>
        <duration>2</duration>
        <instrument id="P1-I36"/>
        <voice>2</voice>
        <type>eighth</type>
        <stem>down</stem>
        <beam number="1">end</beam>
        </note>
      <note default-x="125.50" default-y="-15.00">
        <unpitched>
          <display-step>C</display-step>
          <display-octave>5</display-octave>
          </unpitched>
        <duration>3</duration>
        <instrument id="P1-I39"/>
        <voice>2</voice>
        <type>eighth</type>
        <dot/>
        <stem>down</stem>
        <beam number="1">begin</beam>
        </note>
      <note default-x="191.30" default-y="-15.00">
        <unpitched>
          <display-step>C</display-step>
          <display-octave>5</display-octave>
          </unpitched>
        <duration>1</duration>
        <instrument id="P1-I39"/>
        <voice>2</voice>
        <type>16th</type>
        <stem>down</stem>
        <notehead parentheses="yes">normal</notehead>
        <beam number="1">end</beam>
        <beam number="2">backward hook</beam>
        </note>
      <note default-x="225.03" default-y="-35.00">
        <unpitched>
          <display-step>F</display-step>
          <display-octave>4</display-octave>
          </unpitched>
        <duration>2</duration>
        <instrument id="P1-I36"/>
        <voice>2</voice>
        <type>eighth</type>
        <stem>down</stem>
        <beam number="1">begin</beam>
        </note>
      <note default-x="279.00" default-y="-35.00">
        <unpitched>
          <display-step>F</display-step>
          <display-octave>4</display-octave>
          </unpitched>
        <duration>1</duration>
        <instrument id="P1-I36"/>
        <voice>2</voice>
        <type>16th</type>
        <stem>down</stem>
        <beam number="1">continue</beam>
        <beam number="2">begin</beam>
        </note>
      <note default-x="312.73" default-y="-15.00">
        <unpitched>
          <display-step>C</display-step>
          <display-octave>5</display-octave>
          </unpitched>
        <duration>1</duration>
        <instrument id="P1-I39"/>
        <voice>2</voice>
        <type>16th</type>
        <stem>down</stem>
        <beam number="1">end</beam>
        <beam number="2">end</beam>
        </note>
      <note default-x="346.46" default-y="-15.00">
        <unpitched>
          <display-step>C</display-step>
          <display-octave>5</display-octave>
          </unpitched>
        <duration>1</duration>
        <instrument id="P1-I39"/>
        <voice>2</voice>
        <type>16th</type>
        <stem>down</stem>
        <beam number="1">begin</beam>
        <beam number="2">begin</beam>
        <notations>
          <articulations>
            <accent/>
            </articulations>
          </notations>
        </note>
      <note default-x="380.19" default-y="-15.00">
        <unpitched>
          <display-step>C</display-step>
          <display-octave>5</display-octave>
          </unpitched>
        <duration>1</duration>
        <instrument id="P1-I39"/>
        <voice>2</voice>
        <type>16th</type>
        <stem>down</stem>
        <beam number="1">continue</beam>
        <beam number="2">continue</beam>
        </note>
      <note default-x="413.92" default-y="0.00">
        <unpitched>
          <display-step>F</display-step>
          <display-octave>5</display-octave>
          </unpitched>
        <duration>1</duration>
        <instrument id="P1-I49"/>
        <voice>2</voice>
        <type>16th</type>
        <stem>down</stem>
        <beam number="1">continue</beam>
        <beam number="2">continue</beam>
        </note>
      <note default-x="447.65" default-y="-15.00">
        <unpitched>
          <display-step>C</display-step>
          <display-octave>5</display-octave>
          </unpitched>
        <duration>1</duration>
        <instrument id="P1-I39"/>
        <voice>2</voice>
        <type>16th</type>
        <stem>down</stem>
        <beam number="1">end</beam>
        <beam number="2">end</beam>
        </note>
      <barline location="right">
        <bar-style>light-heavy</bar-style>
        <repeat direction="backward"/>
        </barline>
      </measure>
    </part>
  </score-partwise>
