<?xml version="1.0" encoding="UTF-8"?>
<!DOCTYPE score-partwise PUBLIC "-//Recordare//DTD MusicXML 3.1 Partwise//EN" "http://www.musicxml.org/dtds/partwise.dtd">
<score-partwise version="3.1">
  <work>
    <work-title>Tajstra Clic</work-title>
    </work>
  <identification>
    <encoding>
      <software>MuseScore 3.6.2</software>
      <supports element="accidental" type="yes"/>
      <supports element="beam" type="yes"/>
      <supports element="print" attribute="new-page" type="yes" value="yes"/>
      <supports element="print" attribute="new-system" type="yes" value="yes"/>
      <supports element="stem" type="yes"/>
      </encoding>
    </identification>
  <defaults>
    <scaling>
      <millimeters>6.99912</millimeters>
      <tenths>40</tenths>
      </scaling>
    <page-layout>
      <page-height>1696.93</page-height>
      <page-width>1200.48</page-width>
      <page-margins type="even">
        <left-margin>85.7251</left-margin>
        <right-margin>85.7251</right-margin>
        <top-margin>85.7251</top-margin>
        <bottom-margin>85.7251</bottom-margin>
        </page-margins>
      <page-margins type="odd">
        <left-margin>85.7251</left-margin>
        <right-margin>85.7251</right-margin>
        <top-margin>85.7251</top-margin>
        <bottom-margin>85.7251</bottom-margin>
        </page-margins>
      </page-layout>
    <word-font font-family="Edwin" font-size="10"/>
    <lyric-font font-family="Edwin" font-size="10"/>
    </defaults>
  <credit page="1">
    <credit-type>title</credit-type>
    <credit-words default-x="600.241" default-y="1611.21" justify="center" valign="top" font-size="22">Tajstra Clic</credit-words>
    </credit>
  <part-list>
    <score-part id="P1">
      <part-name>Flute</part-name>
      <part-abbreviation>Fl.</part-abbreviation>
      <score-instrument id="P1-I1">
        <instrument-name>Flute</instrument-name>
        </score-instrument>
      <midi-device id="P1-I1" port="1"></midi-device>
      <midi-instrument id="P1-I1">
        <midi-channel>1</midi-channel>
        <midi-program>74</midi-program>
        <volume>78.7402</volume>
        <pan>0</pan>
        </midi-instrument>
      </score-part>
    <part-group type="start" number="1">
      <group-symbol>bracket</group-symbol>
      </part-group>
    <score-part id="P2">
      <part-name>Wood Blocks</part-name>
      <part-abbreviation>Wd. Bl.</part-abbreviation>
      <score-instrument id="P2-I77">
        <instrument-name>High Wood Block</instrument-name>
        </score-instrument>
      <score-instrument id="P2-I78">
        <instrument-name>Low Wood Block</instrument-name>
        </score-instrument>
      <midi-device port="1"></midi-device>
      <midi-instrument id="P2-I77">
        <midi-channel>10</midi-channel>
        <midi-program>49</midi-program>
        <midi-unpitched>77</midi-unpitched>
        <volume>51.1811</volume>
        <pan>-58</pan>
        </midi-instrument>
      <midi-instrument id="P2-I78">
        <midi-channel>10</midi-channel>
        <midi-program>49</midi-program>
        <midi-unpitched>78</midi-unpitched>
        <volume>51.1811</volume>
        <pan>-58</pan>
        </midi-instrument>
      </score-part>
    <score-part id="P3">
      <part-name>Tambourine</part-name>
      <part-abbreviation>Tamb.</part-abbreviation>
      <score-instrument id="P3-I55">
        <instrument-name>Tambourine</instrument-name>
        </score-instrument>
      <midi-device port="2"></midi-device>
      <midi-instrument id="P3-I55">
        <midi-channel>10</midi-channel>
        <midi-program>2</midi-program>
        <midi-unpitched>55</midi-unpitched>
        <volume>81.1024</volume>
        <pan>57</pan>
        </midi-instrument>
      </score-part>
    <part-group type="stop" number="1"/>
    </part-list>
  <part id="P1">
    <measure number="1" width="274.22">
      <print>
        <system-layout>
          <system-margins>
            <left-margin>134.39</left-margin>
            <right-margin>0.00</right-margin>
            </system-margins>
          <top-system-distance>170.00</top-system-distance>
          </system-layout>
        </print>
      <attributes>
        <divisions>2</divisions>
        <key>
          <fifths>0</fifths>
          </key>
        <time>
          <beats>7</beats>
          <beat-type>8</beat-type>
          </time>
        <clef>
          <sign>G</sign>
          <line>2</line>
          </clef>
        </attributes>
      <direction placement="above">
        <direction-type>
          <metronome parentheses="no" default-x="-35.72" relative-y="20.00">
            <beat-unit>eighth</beat-unit>
            <per-minute>200</per-minute>
            </metronome>
          </direction-type>
        <sound tempo="100"/>
        </direction>
      <direction placement="below">
        <direction-type>
          <dynamics default-x="3.25" default-y="-40.00" relative-x="-17.12" relative-y="-26.52">
            <p/>
            </dynamics>
          </direction-type>
        <sound dynamics="54.44"/>
        </direction>
      <note default-x="80.52" default-y="-25.00">
        <pitch>
          <step>A</step>
          <octave>4</octave>
          </pitch>
        <duration>1</duration>
        <voice>1</voice>
        <type>eighth</type>
        <stem>down</stem>
        <beam number="1">begin</beam>
        </note>
      <note default-x="107.83" default-y="-5.00">
        <pitch>
          <step>E</step>
          <octave>5</octave>
          </pitch>
        <duration>1</duration>
        <voice>1</voice>
        <type>eighth</type>
        <stem>down</stem>
        <beam number="1">continue</beam>
        </note>
      <note default-x="135.15" default-y="-15.00">
        <pitch>
          <step>C</step>
          <octave>5</octave>
          </pitch>
        <duration>1</duration>
        <voice>1</voice>
        <type>eighth</type>
        <stem>down</stem>
        <beam number="1">end</beam>
        </note>
      <note default-x="162.47" default-y="-10.00">
        <pitch>
          <step>D</step>
          <octave>5</octave>
          </pitch>
        <duration>1</duration>
        <voice>1</voice>
        <type>eighth</type>
        <stem>down</stem>
        <beam number="1">begin</beam>
        </note>
      <note default-x="189.78" default-y="-15.00">
        <pitch>
          <step>C</step>
          <octave>5</octave>
          </pitch>
        <duration>1</duration>
        <voice>1</voice>
        <type>eighth</type>
        <stem>down</stem>
        <beam number="1">end</beam>
        </note>
      <note default-x="217.10" default-y="-20.00">
        <pitch>
          <step>B</step>
          <octave>4</octave>
          </pitch>
        <duration>1</duration>
        <voice>1</voice>
        <type>eighth</type>
        <stem>down</stem>
        <beam number="1">begin</beam>
        </note>
      <note default-x="244.42" default-y="-5.00">
        <pitch>
          <step>E</step>
          <octave>5</octave>
          </pitch>
        <duration>1</duration>
        <voice>1</voice>
        <type>eighth</type>
        <stem>down</stem>
        <beam number="1">end</beam>
        </note>
      </measure>
    <measure number="2" width="206.70">
      <note default-x="13.00" default-y="-25.00">
        <pitch>
          <step>A</step>
          <octave>4</octave>
          </pitch>
        <duration>1</duration>
        <voice>1</voice>
        <type>eighth</type>
        <stem>down</stem>
        <beam number="1">begin</beam>
        </note>
      <note default-x="40.32" default-y="-5.00">
        <pitch>
          <step>E</step>
          <octave>5</octave>
          </pitch>
        <duration>1</duration>
        <voice>1</voice>
        <type>eighth</type>
        <stem>down</stem>
        <beam number="1">continue</beam>
        </note>
      <note default-x="67.63" default-y="-15.00">
        <pitch>
          <step>C</step>
          <octave>5</octave>
          </pitch>
        <duration>1</duration>
        <voice>1</voice>
        <type>eighth</type>
        <stem>down</stem>
        <beam number="1">end</beam>
        </note>
      <note default-x="94.95" default-y="-10.00">
        <pitch>
          <step>D</step>
          <octave>5</octave>
          </pitch>
        <duration>1</duration>
        <voice>1</voice>
        <type>eighth</type>
        <stem>down</stem>
        <beam number="1">begin</beam>
        </note>
      <note default-x="122.27" default-y="-15.00">
        <pitch>
          <step>C</step>
          <octave>5</octave>
          </pitch>
        <duration>1</duration>
        <voice>1</voice>
        <type>eighth</type>
        <stem>down</stem>
        <beam number="1">end</beam>
        </note>
      <note default-x="149.59" default-y="-20.00">
        <pitch>
          <step>B</step>
          <octave>4</octave>
          </pitch>
        <duration>1</duration>
        <voice>1</voice>
        <type>eighth</type>
        <stem>down</stem>
        <beam number="1">begin</beam>
        </note>
      <note default-x="176.90" default-y="-5.00">
        <pitch>
          <step>E</step>
          <octave>5</octave>
          </pitch>
        <duration>1</duration>
        <voice>1</voice>
        <type>eighth</type>
        <stem>down</stem>
        <beam number="1">end</beam>
        </note>
      </measure>
    <measure number="3" width="206.70">
      <note default-x="13.00" default-y="-25.00">
        <pitch>
          <step>A</step>
          <octave>4</octave>
          </pitch>
        <duration>1</duration>
        <voice>1</voice>
        <type>eighth</type>
        <stem>down</stem>
        <beam number="1">begin</beam>
        </note>
      <note default-x="40.32" default-y="-5.00">
        <pitch>
          <step>E</step>
          <octave>5</octave>
          </pitch>
        <duration>1</duration>
        <voice>1</voice>
        <type>eighth</type>
        <stem>down</stem>
        <beam number="1">continue</beam>
        </note>
      <note default-x="67.63" default-y="-15.00">
        <pitch>
          <step>C</step>
          <octave>5</octave>
          </pitch>
        <duration>1</duration>
        <voice>1</voice>
        <type>eighth</type>
        <stem>down</stem>
        <beam number="1">end</beam>
        </note>
      <note default-x="94.95" default-y="-10.00">
        <pitch>
          <step>D</step>
          <octave>5</octave>
          </pitch>
        <duration>1</duration>
        <voice>1</voice>
        <type>eighth</type>
        <stem>down</stem>
        <beam number="1">begin</beam>
        </note>
      <note default-x="122.27" default-y="-15.00">
        <pitch>
          <step>C</step>
          <octave>5</octave>
          </pitch>
        <duration>1</duration>
        <voice>1</voice>
        <type>eighth</type>
        <stem>down</stem>
        <beam number="1">end</beam>
        </note>
      <note default-x="149.59" default-y="-20.00">
        <pitch>
          <step>B</step>
          <octave>4</octave>
          </pitch>
        <duration>1</duration>
        <voice>1</voice>
        <type>eighth</type>
        <stem>down</stem>
        <beam number="1">begin</beam>
        </note>
      <note default-x="176.90" default-y="-5.00">
        <pitch>
          <step>E</step>
          <octave>5</octave>
          </pitch>
        <duration>1</duration>
        <voice>1</voice>
        <type>eighth</type>
        <stem>down</stem>
        <beam number="1">end</beam>
        </note>
      </measure>
    <measure number="4" width="206.70">
      <note default-x="13.00" default-y="-25.00">
        <pitch>
          <step>A</step>
          <octave>4</octave>
          </pitch>
        <duration>1</duration>
        <voice>1</voice>
        <type>eighth</type>
        <stem>down</stem>
        <beam number="1">begin</beam>
        </note>
      <note default-x="40.32" default-y="-5.00">
        <pitch>
          <step>E</step>
          <octave>5</octave>
          </pitch>
        <duration>1</duration>
        <voice>1</voice>
        <type>eighth</type>
        <stem>down</stem>
        <beam number="1">continue</beam>
        </note>
      <note default-x="67.63" default-y="-15.00">
        <pitch>
          <step>C</step>
          <octave>5</octave>
          </pitch>
        <duration>1</duration>
        <voice>1</voice>
        <type>eighth</type>
        <stem>down</stem>
        <beam number="1">end</beam>
        </note>
      <note default-x="94.95" default-y="-10.00">
        <pitch>
          <step>D</step>
          <octave>5</octave>
          </pitch>
        <duration>1</duration>
        <voice>1</voice>
        <type>eighth</type>
        <stem>down</stem>
        <beam number="1">begin</beam>
        </note>
      <note default-x="122.27" default-y="-15.00">
        <pitch>
          <step>C</step>
          <octave>5</octave>
          </pitch>
        <duration>1</duration>
        <voice>1</voice>
        <type>eighth</type>
        <stem>down</stem>
        <beam number="1">end</beam>
        </note>
      <note default-x="149.59" default-y="-20.00">
        <pitch>
          <step>B</step>
          <octave>4</octave>
          </pitch>
        <duration>1</duration>
        <voice>1</voice>
        <type>eighth</type>
        <stem>down</stem>
        <beam number="1">begin</beam>
        </note>
      <note default-x="176.90" default-y="-5.00">
        <pitch>
          <step>E</step>
          <octave>5</octave>
          </pitch>
        <duration>1</duration>
        <voice>1</voice>
        <type>eighth</type>
        <stem>down</stem>
        <beam number="1">end</beam>
        </note>
      </measure>
    <measure number="5" width="226.86">
      <print new-system="yes">
        <system-layout>
          <system-margins>
            <left-margin>83.98</left-margin>
            <right-margin>0.00</right-margin>
            </system-margins>
          <system-distance>93.27</system-distance>
          </system-layout>
        </print>
      <direction placement="below">
        <direction-type>
          <dynamics default-x="3.25" default-y="-40.00" relative-y="-25.00">
            <mp/>
            </dynamics>
          </direction-type>
        <sound dynamics="71.11"/>
        </direction>
      <note default-x="60.39" default-y="-25.00">
        <pitch>
          <step>A</step>
          <octave>4</octave>
          </pitch>
        <duration>1</duration>
        <voice>1</voice>
        <type>eighth</type>
        <stem>down</stem>
        <beam number="1">begin</beam>
        </note>
      <note default-x="83.17" default-y="-5.00">
        <pitch>
          <step>E</step>
          <octave>5</octave>
          </pitch>
        <duration>1</duration>
        <voice>1</voice>
        <type>eighth</type>
        <stem>down</stem>
        <beam number="1">continue</beam>
        </note>
      <note default-x="105.95" default-y="-15.00">
        <pitch>
          <step>C</step>
          <octave>5</octave>
          </pitch>
        <duration>1</duration>
        <voice>1</voice>
        <type>eighth</type>
        <stem>down</stem>
        <beam number="1">end</beam>
        </note>
      <note default-x="128.73" default-y="-10.00">
        <pitch>
          <step>D</step>
          <octave>5</octave>
          </pitch>
        <duration>1</duration>
        <voice>1</voice>
        <type>eighth</type>
        <stem>down</stem>
        <beam number="1">begin</beam>
        </note>
      <note default-x="151.51" default-y="-15.00">
        <pitch>
          <step>C</step>
          <octave>5</octave>
          </pitch>
        <duration>1</duration>
        <voice>1</voice>
        <type>eighth</type>
        <stem>down</stem>
        <beam number="1">end</beam>
        </note>
      <note default-x="174.28" default-y="-20.00">
        <pitch>
          <step>B</step>
          <octave>4</octave>
          </pitch>
        <duration>1</duration>
        <voice>1</voice>
        <type>eighth</type>
        <stem>down</stem>
        <beam number="1">begin</beam>
        </note>
      <note default-x="197.06" default-y="-5.00">
        <pitch>
          <step>E</step>
          <octave>5</octave>
          </pitch>
        <duration>1</duration>
        <voice>1</voice>
        <type>eighth</type>
        <stem>down</stem>
        <beam number="1">end</beam>
        </note>
      </measure>
    <measure number="6" width="179.46">
      <direction placement="below">
        <direction-type>
          <dynamics default-x="3.25" default-y="-46.31" relative-y="-25.00">
            <p/>
            </dynamics>
          </direction-type>
        <sound dynamics="54.44"/>
        </direction>
      <note default-x="13.00" default-y="-25.00">
        <pitch>
          <step>A</step>
          <octave>4</octave>
          </pitch>
        <duration>1</duration>
        <voice>1</voice>
        <type>eighth</type>
        <stem>down</stem>
        <beam number="1">begin</beam>
        </note>
      <note default-x="35.78" default-y="-5.00">
        <pitch>
          <step>E</step>
          <octave>5</octave>
          </pitch>
        <duration>1</duration>
        <voice>1</voice>
        <type>eighth</type>
        <stem>down</stem>
        <beam number="1">continue</beam>
        </note>
      <note default-x="58.56" default-y="-15.00">
        <pitch>
          <step>C</step>
          <octave>5</octave>
          </pitch>
        <duration>1</duration>
        <voice>1</voice>
        <type>eighth</type>
        <stem>down</stem>
        <beam number="1">end</beam>
        </note>
      <note default-x="81.33" default-y="-10.00">
        <pitch>
          <step>D</step>
          <octave>5</octave>
          </pitch>
        <duration>1</duration>
        <voice>1</voice>
        <type>eighth</type>
        <stem>down</stem>
        <beam number="1">begin</beam>
        </note>
      <note default-x="104.11" default-y="-15.00">
        <pitch>
          <step>C</step>
          <octave>5</octave>
          </pitch>
        <duration>1</duration>
        <voice>1</voice>
        <type>eighth</type>
        <stem>down</stem>
        <beam number="1">end</beam>
        </note>
      <note default-x="126.89" default-y="-20.00">
        <pitch>
          <step>B</step>
          <octave>4</octave>
          </pitch>
        <duration>1</duration>
        <voice>1</voice>
        <type>eighth</type>
        <stem>down</stem>
        <beam number="1">begin</beam>
        </note>
      <note default-x="149.67" default-y="-5.00">
        <pitch>
          <step>E</step>
          <octave>5</octave>
          </pitch>
        <duration>1</duration>
        <voice>1</voice>
        <type>eighth</type>
        <stem>down</stem>
        <beam number="1">end</beam>
        </note>
      </measure>
    <measure number="7" width="179.46">
      <direction placement="below">
        <direction-type>
          <dynamics default-x="3.25" default-y="-40.00" relative-y="-25.00">
            <mp/>
            </dynamics>
          </direction-type>
        <sound dynamics="71.11"/>
        </direction>
      <note default-x="13.00" default-y="-25.00">
        <pitch>
          <step>A</step>
          <octave>4</octave>
          </pitch>
        <duration>1</duration>
        <voice>1</voice>
        <type>eighth</type>
        <stem>down</stem>
        <beam number="1">begin</beam>
        </note>
      <note default-x="35.78" default-y="-5.00">
        <pitch>
          <step>E</step>
          <octave>5</octave>
          </pitch>
        <duration>1</duration>
        <voice>1</voice>
        <type>eighth</type>
        <stem>down</stem>
        <beam number="1">continue</beam>
        </note>
      <note default-x="58.56" default-y="-15.00">
        <pitch>
          <step>C</step>
          <octave>5</octave>
          </pitch>
        <duration>1</duration>
        <voice>1</voice>
        <type>eighth</type>
        <stem>down</stem>
        <beam number="1">end</beam>
        </note>
      <note default-x="81.33" default-y="-10.00">
        <pitch>
          <step>D</step>
          <octave>5</octave>
          </pitch>
        <duration>1</duration>
        <voice>1</voice>
        <type>eighth</type>
        <stem>down</stem>
        <beam number="1">begin</beam>
        </note>
      <note default-x="104.11" default-y="-15.00">
        <pitch>
          <step>C</step>
          <octave>5</octave>
          </pitch>
        <duration>1</duration>
        <voice>1</voice>
        <type>eighth</type>
        <stem>down</stem>
        <beam number="1">end</beam>
        </note>
      <note default-x="126.89" default-y="-20.00">
        <pitch>
          <step>B</step>
          <octave>4</octave>
          </pitch>
        <duration>1</duration>
        <voice>1</voice>
        <type>eighth</type>
        <stem>down</stem>
        <beam number="1">begin</beam>
        </note>
      <note default-x="149.67" default-y="-5.00">
        <pitch>
          <step>E</step>
          <octave>5</octave>
          </pitch>
        <duration>1</duration>
        <voice>1</voice>
        <type>eighth</type>
        <stem>down</stem>
        <beam number="1">end</beam>
        </note>
      </measure>
    <measure number="8" width="179.46">
      <direction placement="below">
        <direction-type>
          <dynamics default-x="3.25" default-y="-46.31" relative-y="-25.00">
            <p/>
            </dynamics>
          </direction-type>
        <sound dynamics="54.44"/>
        </direction>
      <note default-x="13.00" default-y="-25.00">
        <pitch>
          <step>A</step>
          <octave>4</octave>
          </pitch>
        <duration>1</duration>
        <voice>1</voice>
        <type>eighth</type>
        <stem>down</stem>
        <beam number="1">begin</beam>
        </note>
      <note default-x="35.78" default-y="-5.00">
        <pitch>
          <step>E</step>
          <octave>5</octave>
          </pitch>
        <duration>1</duration>
        <voice>1</voice>
        <type>eighth</type>
        <stem>down</stem>
        <beam number="1">continue</beam>
        </note>
      <note default-x="58.56" default-y="-15.00">
        <pitch>
          <step>C</step>
          <octave>5</octave>
          </pitch>
        <duration>1</duration>
        <voice>1</voice>
        <type>eighth</type>
        <stem>down</stem>
        <beam number="1">end</beam>
        </note>
      <note default-x="81.33" default-y="-10.00">
        <pitch>
          <step>D</step>
          <octave>5</octave>
          </pitch>
        <duration>1</duration>
        <voice>1</voice>
        <type>eighth</type>
        <stem>down</stem>
        <beam number="1">begin</beam>
        </note>
      <note default-x="104.11" default-y="-15.00">
        <pitch>
          <step>C</step>
          <octave>5</octave>
          </pitch>
        <duration>1</duration>
        <voice>1</voice>
        <type>eighth</type>
        <stem>down</stem>
        <beam number="1">end</beam>
        </note>
      <note default-x="126.89" default-y="-20.00">
        <pitch>
          <step>B</step>
          <octave>4</octave>
          </pitch>
        <duration>1</duration>
        <voice>1</voice>
        <type>eighth</type>
        <stem>down</stem>
        <beam number="1">begin</beam>
        </note>
      <note default-x="149.67" default-y="-5.00">
        <pitch>
          <step>E</step>
          <octave>5</octave>
          </pitch>
        <duration>1</duration>
        <voice>1</voice>
        <type>eighth</type>
        <stem>down</stem>
        <beam number="1">end</beam>
        </note>
      </measure>
    <measure number="9" width="179.46">
      <direction placement="below">
        <direction-type>
          <dynamics default-x="3.25" default-y="-40.00" relative-y="-25.00">
            <mp/>
            </dynamics>
          </direction-type>
        <sound dynamics="71.11"/>
        </direction>
      <note default-x="13.00" default-y="-25.00">
        <pitch>
          <step>A</step>
          <octave>4</octave>
          </pitch>
        <duration>1</duration>
        <voice>1</voice>
        <type>eighth</type>
        <stem>down</stem>
        <beam number="1">begin</beam>
        </note>
      <note default-x="35.78" default-y="-5.00">
        <pitch>
          <step>E</step>
          <octave>5</octave>
          </pitch>
        <duration>1</duration>
        <voice>1</voice>
        <type>eighth</type>
        <stem>down</stem>
        <beam number="1">continue</beam>
        </note>
      <note default-x="58.56" default-y="-15.00">
        <pitch>
          <step>C</step>
          <octave>5</octave>
          </pitch>
        <duration>1</duration>
        <voice>1</voice>
        <type>eighth</type>
        <stem>down</stem>
        <beam number="1">end</beam>
        </note>
      <note default-x="81.33" default-y="-10.00">
        <pitch>
          <step>D</step>
          <octave>5</octave>
          </pitch>
        <duration>1</duration>
        <voice>1</voice>
        <type>eighth</type>
        <stem>down</stem>
        <beam number="1">begin</beam>
        </note>
      <note default-x="104.11" default-y="-15.00">
        <pitch>
          <step>C</step>
          <octave>5</octave>
          </pitch>
        <duration>1</duration>
        <voice>1</voice>
        <type>eighth</type>
        <stem>down</stem>
        <beam number="1">end</beam>
        </note>
      <note default-x="126.89" default-y="-20.00">
        <pitch>
          <step>B</step>
          <octave>4</octave>
          </pitch>
        <duration>1</duration>
        <voice>1</voice>
        <type>eighth</type>
        <stem>down</stem>
        <beam number="1">begin</beam>
        </note>
      <note default-x="149.67" default-y="-5.00">
        <pitch>
          <step>E</step>
          <octave>5</octave>
          </pitch>
        <duration>1</duration>
        <voice>1</voice>
        <type>eighth</type>
        <stem>down</stem>
        <beam number="1">end</beam>
        </note>
      </measure>
    <measure number="10" width="208.08">
      <print new-system="yes">
        <system-layout>
          <system-margins>
            <left-margin>83.98</left-margin>
            <right-margin>0.00</right-margin>
            </system-margins>
          <system-distance>93.27</system-distance>
          </system-layout>
        </print>
      <note default-x="60.39" default-y="-25.00">
        <pitch>
          <step>A</step>
          <octave>4</octave>
          </pitch>
        <duration>1</duration>
        <voice>1</voice>
        <type>eighth</type>
        <stem>down</stem>
        <beam number="1">begin</beam>
        </note>
      <note default-x="80.04" default-y="-5.00">
        <pitch>
          <step>E</step>
          <octave>5</octave>
          </pitch>
        <duration>1</duration>
        <voice>1</voice>
        <type>eighth</type>
        <stem>down</stem>
        <beam number="1">continue</beam>
        </note>
      <note default-x="99.69" default-y="-15.00">
        <pitch>
          <step>C</step>
          <octave>5</octave>
          </pitch>
        <duration>1</duration>
        <voice>1</voice>
        <type>eighth</type>
        <stem>down</stem>
        <beam number="1">end</beam>
        </note>
      <note default-x="119.34" default-y="-10.00">
        <pitch>
          <step>D</step>
          <octave>5</octave>
          </pitch>
        <duration>1</duration>
        <voice>1</voice>
        <type>eighth</type>
        <stem>down</stem>
        <beam number="1">begin</beam>
        </note>
      <note default-x="138.98" default-y="-15.00">
        <pitch>
          <step>C</step>
          <octave>5</octave>
          </pitch>
        <duration>1</duration>
        <voice>1</voice>
        <type>eighth</type>
        <stem>down</stem>
        <beam number="1">end</beam>
        </note>
      <note default-x="158.63" default-y="-20.00">
        <pitch>
          <step>B</step>
          <octave>4</octave>
          </pitch>
        <duration>1</duration>
        <voice>1</voice>
        <type>eighth</type>
        <stem>down</stem>
        <beam number="1">begin</beam>
        </note>
      <note default-x="178.28" default-y="-5.00">
        <pitch>
          <step>E</step>
          <octave>5</octave>
          </pitch>
        <duration>1</duration>
        <voice>1</voice>
        <type>eighth</type>
        <stem>down</stem>
        <beam number="1">end</beam>
        </note>
      </measure>
    <measure number="11" width="160.68">
      <note default-x="13.00" default-y="-25.00">
        <pitch>
          <step>A</step>
          <octave>4</octave>
          </pitch>
        <duration>1</duration>
        <voice>1</voice>
        <type>eighth</type>
        <stem>down</stem>
        <beam number="1">begin</beam>
        </note>
      <note default-x="32.65" default-y="-5.00">
        <pitch>
          <step>E</step>
          <octave>5</octave>
          </pitch>
        <duration>1</duration>
        <voice>1</voice>
        <type>eighth</type>
        <stem>down</stem>
        <beam number="1">continue</beam>
        </note>
      <note default-x="52.30" default-y="-15.00">
        <pitch>
          <step>C</step>
          <octave>5</octave>
          </pitch>
        <duration>1</duration>
        <voice>1</voice>
        <type>eighth</type>
        <stem>down</stem>
        <beam number="1">end</beam>
        </note>
      <note default-x="71.94" default-y="-10.00">
        <pitch>
          <step>D</step>
          <octave>5</octave>
          </pitch>
        <duration>1</duration>
        <voice>1</voice>
        <type>eighth</type>
        <stem>down</stem>
        <beam number="1">begin</beam>
        </note>
      <note default-x="91.59" default-y="-15.00">
        <pitch>
          <step>C</step>
          <octave>5</octave>
          </pitch>
        <duration>1</duration>
        <voice>1</voice>
        <type>eighth</type>
        <stem>down</stem>
        <beam number="1">end</beam>
        </note>
      <note default-x="111.24" default-y="-20.00">
        <pitch>
          <step>B</step>
          <octave>4</octave>
          </pitch>
        <duration>1</duration>
        <voice>1</voice>
        <type>eighth</type>
        <stem>down</stem>
        <beam number="1">begin</beam>
        </note>
      <note default-x="130.89" default-y="-5.00">
        <pitch>
          <step>E</step>
          <octave>5</octave>
          </pitch>
        <duration>1</duration>
        <voice>1</voice>
        <type>eighth</type>
        <stem>down</stem>
        <beam number="1">end</beam>
        </note>
      </measure>
    <measure number="12" width="67.88">
      <note>
        <rest measure="yes"/>
        <duration>7</duration>
        <voice>1</voice>
        </note>
      </measure>
    <measure number="13" width="100.77">
      <direction placement="below">
        <direction-type>
          <dynamics default-x="6.50" default-y="-40.00" relative-y="-25.00">
            <mf/>
            </dynamics>
          </direction-type>
        <sound dynamics="88.89"/>
        </direction>
      <note>
        <rest measure="yes"/>
        <duration>7</duration>
        <voice>1</voice>
        </note>
      </measure>
    <measure number="14" width="67.88">
      <note>
        <rest measure="yes"/>
        <duration>7</duration>
        <voice>1</voice>
        </note>
      </measure>
    <measure number="15" width="67.88">
      <note>
        <rest measure="yes"/>
        <duration>7</duration>
        <voice>1</voice>
        </note>
      </measure>
    <measure number="16" width="67.88">
      <note>
        <rest measure="yes"/>
        <duration>7</duration>
        <voice>1</voice>
        </note>
      </measure>
    <measure number="17" width="67.88">
      <note>
        <rest measure="yes"/>
        <duration>7</duration>
        <voice>1</voice>
        </note>
      </measure>
    <measure number="18" width="67.88">
      <note>
        <rest measure="yes"/>
        <duration>7</duration>
        <voice>1</voice>
        </note>
      </measure>
    <measure number="19" width="67.88">
      <note>
        <rest measure="yes"/>
        <duration>7</duration>
        <voice>1</voice>
        </note>
      </measure>
    <measure number="20" width="289.64">
      <print new-system="yes">
        <system-layout>
          <system-margins>
            <left-margin>83.98</left-margin>
            <right-margin>0.00</right-margin>
            </system-margins>
          <system-distance>93.27</system-distance>
          </system-layout>
        </print>
      <note>
        <rest measure="yes"/>
        <duration>7</duration>
        <voice>1</voice>
        </note>
      </measure>
    <measure number="21" width="235.19">
      <note>
        <rest measure="yes"/>
        <duration>7</duration>
        <voice>1</voice>
        </note>
      </measure>
    <measure number="22" width="202.31">
      <note>
        <rest measure="yes"/>
        <duration>7</duration>
        <voice>1</voice>
        </note>
      </measure>
    <measure number="23" width="217.57">
      <note>
        <rest measure="yes"/>
        <duration>7</duration>
        <voice>1</voice>
        </note>
      </measure>
    <measure number="24" width="255.28">
      <print new-system="yes">
        <system-layout>
          <system-margins>
            <left-margin>83.98</left-margin>
            <right-margin>0.00</right-margin>
            </system-margins>
          <system-distance>93.27</system-distance>
          </system-layout>
        </print>
      <note>
        <rest measure="yes"/>
        <duration>7</duration>
        <voice>1</voice>
        </note>
      </measure>
    <measure number="25" width="207.89">
      <note>
        <rest measure="yes"/>
        <duration>7</duration>
        <voice>1</voice>
        </note>
      </measure>
    <measure number="26" width="240.77">
      <note>
        <rest measure="yes"/>
        <duration>7</duration>
        <voice>1</voice>
        </note>
      </measure>
    <measure number="27" width="240.77">
      <note>
        <rest measure="yes"/>
        <duration>7</duration>
        <voice>1</voice>
        </note>
      </measure>
    <measure number="28" width="212.29">
      <print new-page="yes">
        <system-layout>
          <system-margins>
            <left-margin>83.98</left-margin>
            <right-margin>0.00</right-margin>
            </system-margins>
          <top-system-distance>70.00</top-system-distance>
          </system-layout>
        </print>
      <note>
        <rest measure="yes"/>
        <duration>7</duration>
        <voice>1</voice>
        </note>
      </measure>
    <measure number="29" width="164.90">
      <note>
        <rest measure="yes"/>
        <duration>7</duration>
        <voice>1</voice>
        </note>
      </measure>
    <measure number="30" width="204.84">
      <note>
        <rest measure="yes"/>
        <duration>7</duration>
        <voice>1</voice>
        </note>
      </measure>
    <measure number="31" width="197.79">
      <note>
        <rest measure="yes"/>
        <duration>7</duration>
        <voice>1</voice>
        </note>
      </measure>
    <measure number="32" width="164.90">
      <note>
        <rest measure="yes"/>
        <duration>7</duration>
        <voice>1</voice>
        </note>
      </measure>
    <measure number="33" width="214.20">
      <print new-system="yes">
        <system-layout>
          <system-margins>
            <left-margin>83.98</left-margin>
            <right-margin>0.00</right-margin>
            </system-margins>
          <system-distance>85.26</system-distance>
          </system-layout>
        </print>
      <note>
        <rest measure="yes"/>
        <duration>7</duration>
        <voice>1</voice>
        </note>
      </measure>
    <measure number="34" width="166.80">
      <note>
        <rest measure="yes"/>
        <duration>7</duration>
        <voice>1</voice>
        </note>
      </measure>
    <measure number="35" width="166.80">
      <note>
        <rest measure="yes"/>
        <duration>7</duration>
        <voice>1</voice>
        </note>
      </measure>
    <measure number="36" width="246.26">
      <attributes>
        <time>
          <beats>6</beats>
          <beat-type>8</beat-type>
          </time>
        </attributes>
      <note>
        <rest measure="yes"/>
        <duration>6</duration>
        <voice>1</voice>
        </note>
      </measure>
    <measure number="37" width="150.66">
      <note>
        <rest measure="yes"/>
        <duration>6</duration>
        <voice>1</voice>
        </note>
      </measure>
    <measure number="38" width="107.22">
      <print new-system="yes">
        <system-layout>
          <system-margins>
            <left-margin>83.98</left-margin>
            <right-margin>-0.00</right-margin>
            </system-margins>
          <system-distance>85.26</system-distance>
          </system-layout>
        </print>
      <note>
        <rest measure="yes"/>
        <duration>6</duration>
        <voice>1</voice>
        </note>
      </measure>
    <measure number="39" width="59.82">
      <note>
        <rest measure="yes"/>
        <duration>6</duration>
        <voice>1</voice>
        </note>
      </measure>
    <measure number="40" width="59.82">
      <note>
        <rest measure="yes"/>
        <duration>6</duration>
        <voice>1</voice>
        </note>
      </measure>
    <measure number="41" width="59.82">
      <note>
        <rest measure="yes"/>
        <duration>6</duration>
        <voice>1</voice>
        </note>
      </measure>
    <measure number="42" width="59.82">
      <note>
        <rest measure="yes"/>
        <duration>6</duration>
        <voice>1</voice>
        </note>
      </measure>
    <measure number="43" width="59.82">
      <note>
        <rest measure="yes"/>
        <duration>6</duration>
        <voice>1</voice>
        </note>
      </measure>
    <measure number="44" width="59.82">
      <note>
        <rest measure="yes"/>
        <duration>6</duration>
        <voice>1</voice>
        </note>
      </measure>
    <measure number="45" width="59.82">
      <note>
        <rest measure="yes"/>
        <duration>6</duration>
        <voice>1</voice>
        </note>
      </measure>
    <measure number="46" width="59.82">
      <note>
        <rest measure="yes"/>
        <duration>6</duration>
        <voice>1</voice>
        </note>
      </measure>
    <measure number="47" width="59.82">
      <note>
        <rest measure="yes"/>
        <duration>6</duration>
        <voice>1</voice>
        </note>
      </measure>
    <measure number="48" width="59.82">
      <note>
        <rest measure="yes"/>
        <duration>6</duration>
        <voice>1</voice>
        </note>
      </measure>
    <measure number="49" width="59.82">
      <note>
        <rest measure="yes"/>
        <duration>6</duration>
        <voice>1</voice>
        </note>
      </measure>
    <measure number="50" width="59.82">
      <note>
        <rest measure="yes"/>
        <duration>6</duration>
        <voice>1</voice>
        </note>
      </measure>
    <measure number="51" width="59.82">
      <note>
        <rest measure="yes"/>
        <duration>6</duration>
        <voice>1</voice>
        </note>
      </measure>
    <measure number="52" width="59.82">
      <note>
        <rest measure="yes"/>
        <duration>6</duration>
        <voice>1</voice>
        </note>
      </measure>
    <measure number="53" width="226.86">
      <print new-system="yes">
        <system-layout>
          <system-margins>
            <left-margin>83.98</left-margin>
            <right-margin>0.00</right-margin>
            </system-margins>
          <system-distance>85.26</system-distance>
          </system-layout>
        </print>
      <note>
        <rest measure="yes"/>
        <duration>6</duration>
        <voice>1</voice>
        </note>
      </measure>
    <measure number="54" width="179.46">
      <note>
        <rest measure="yes"/>
        <duration>6</duration>
        <voice>1</voice>
        </note>
      </measure>
    <measure number="55" width="179.46">
      <note>
        <rest measure="yes"/>
        <duration>6</duration>
        <voice>1</voice>
        </note>
      </measure>
    <measure number="56" width="179.46">
      <note>
        <rest measure="yes"/>
        <duration>6</duration>
        <voice>1</voice>
        </note>
      </measure>
    <measure number="57" width="179.46">
      <note>
        <rest measure="yes"/>
        <duration>6</duration>
        <voice>1</voice>
        </note>
      </measure>
    <measure number="58" width="226.86">
      <print new-system="yes">
        <system-layout>
          <system-margins>
            <left-margin>83.98</left-margin>
            <right-margin>0.00</right-margin>
            </system-margins>
          <system-distance>85.26</system-distance>
          </system-layout>
        </print>
      <note>
        <rest measure="yes"/>
        <duration>6</duration>
        <voice>1</voice>
        </note>
      </measure>
    <measure number="59" width="179.46">
      <note>
        <rest measure="yes"/>
        <duration>6</duration>
        <voice>1</voice>
        </note>
      </measure>
    <measure number="60" width="179.46">
      <note>
        <rest measure="yes"/>
        <duration>6</duration>
        <voice>1</voice>
        </note>
      </measure>
    <measure number="61" width="179.46">
      <note>
        <rest measure="yes"/>
        <duration>6</duration>
        <voice>1</voice>
        </note>
      </measure>
    <measure number="62" width="179.46">
      <note>
        <rest measure="yes"/>
        <duration>6</duration>
        <voice>1</voice>
        </note>
      </measure>
    <measure number="63" width="226.86">
      <print new-system="yes">
        <system-layout>
          <system-margins>
            <left-margin>83.98</left-margin>
            <right-margin>0.00</right-margin>
            </system-margins>
          <system-distance>85.26</system-distance>
          </system-layout>
        </print>
      <note>
        <rest measure="yes"/>
        <duration>6</duration>
        <voice>1</voice>
        </note>
      </measure>
    <measure number="64" width="179.46">
      <note>
        <rest measure="yes"/>
        <duration>6</duration>
        <voice>1</voice>
        </note>
      </measure>
    <measure number="65" width="179.46">
      <note>
        <rest measure="yes"/>
        <duration>6</duration>
        <voice>1</voice>
        </note>
      </measure>
    <measure number="66" width="179.46">
      <note>
        <rest measure="yes"/>
        <duration>6</duration>
        <voice>1</voice>
        </note>
      </measure>
    <measure number="67" width="179.46">
      <note>
        <rest measure="yes"/>
        <duration>6</duration>
        <voice>1</voice>
        </note>
      </measure>
    <measure number="68" width="191.81">
      <print new-page="yes">
        <system-layout>
          <system-margins>
            <left-margin>83.98</left-margin>
            <right-margin>0.00</right-margin>
            </system-margins>
          <top-system-distance>70.00</top-system-distance>
          </system-layout>
        </print>
      <note>
        <rest measure="yes"/>
        <duration>6</duration>
        <voice>1</voice>
        </note>
      </measure>
    <measure number="69" width="274.34">
      <attributes>
        <time>
          <beats>7</beats>
          <beat-type>8</beat-type>
          </time>
        </attributes>
      <note>
        <rest measure="yes"/>
        <duration>7</duration>
        <voice>1</voice>
        </note>
      </measure>
    <measure number="70" width="159.52">
      <note>
        <rest measure="yes"/>
        <duration>7</duration>
        <voice>1</voice>
        </note>
      </measure>
    <measure number="71" width="159.52">
      <note>
        <rest measure="yes"/>
        <duration>7</duration>
        <voice>1</voice>
        </note>
      </measure>
    <measure number="72" width="159.52">
      <note>
        <rest measure="yes"/>
        <duration>7</duration>
        <voice>1</voice>
        </note>
      </measure>
    <measure number="73" width="226.86">
      <print new-system="yes">
        <system-layout>
          <system-margins>
            <left-margin>83.98</left-margin>
            <right-margin>0.00</right-margin>
            </system-margins>
          <system-distance>115.89</system-distance>
          </system-layout>
        </print>
      <note>
        <rest measure="yes"/>
        <duration>7</duration>
        <voice>1</voice>
        </note>
      </measure>
    <measure number="74" width="179.46">
      <note>
        <rest measure="yes"/>
        <duration>7</duration>
        <voice>1</voice>
        </note>
      </measure>
    <measure number="75" width="179.46">
      <note>
        <rest measure="yes"/>
        <duration>7</duration>
        <voice>1</voice>
        </note>
      </measure>
    <measure number="76" width="179.46">
      <note>
        <rest measure="yes"/>
        <duration>7</duration>
        <voice>1</voice>
        </note>
      </measure>
    <measure number="77" width="179.46">
      <note>
        <rest measure="yes"/>
        <duration>7</duration>
        <voice>1</voice>
        </note>
      </measure>
    <measure number="78" width="226.86">
      <print new-system="yes">
        <system-layout>
          <system-margins>
            <left-margin>83.98</left-margin>
            <right-margin>0.00</right-margin>
            </system-margins>
          <system-distance>115.89</system-distance>
          </system-layout>
        </print>
      <note>
        <rest measure="yes"/>
        <duration>7</duration>
        <voice>1</voice>
        </note>
      </measure>
    <measure number="79" width="179.46">
      <note>
        <rest measure="yes"/>
        <duration>7</duration>
        <voice>1</voice>
        </note>
      </measure>
    <measure number="80" width="179.46">
      <note>
        <rest measure="yes"/>
        <duration>7</duration>
        <voice>1</voice>
        </note>
      </measure>
    <measure number="81" width="179.46">
      <note>
        <rest measure="yes"/>
        <duration>7</duration>
        <voice>1</voice>
        </note>
      </measure>
    <measure number="82" width="179.46">
      <note>
        <rest measure="yes"/>
        <duration>7</duration>
        <voice>1</voice>
        </note>
      </measure>
    <measure number="83" width="226.86">
      <print new-system="yes">
        <system-layout>
          <system-margins>
            <left-margin>83.98</left-margin>
            <right-margin>0.00</right-margin>
            </system-margins>
          <system-distance>115.89</system-distance>
          </system-layout>
        </print>
      <note>
        <rest measure="yes"/>
        <duration>7</duration>
        <voice>1</voice>
        </note>
      </measure>
    <measure number="84" width="179.46">
      <note>
        <rest measure="yes"/>
        <duration>7</duration>
        <voice>1</voice>
        </note>
      </measure>
    <measure number="85" width="179.46">
      <note>
        <rest measure="yes"/>
        <duration>7</duration>
        <voice>1</voice>
        </note>
      </measure>
    <measure number="86" width="179.46">
      <note>
        <rest measure="yes"/>
        <duration>7</duration>
        <voice>1</voice>
        </note>
      </measure>
    <measure number="87" width="179.46">
      <note>
        <rest measure="yes"/>
        <duration>7</duration>
        <voice>1</voice>
        </note>
      </measure>
    <measure number="88" width="225.09">
      <print new-system="yes">
        <system-layout>
          <system-margins>
            <left-margin>83.98</left-margin>
            <right-margin>0.00</right-margin>
            </system-margins>
          <system-distance>115.89</system-distance>
          </system-layout>
        </print>
      <note>
        <rest measure="yes"/>
        <duration>7</duration>
        <voice>1</voice>
        </note>
      </measure>
    <measure number="89" width="177.69">
      <note>
        <rest measure="yes"/>
        <duration>7</duration>
        <voice>1</voice>
        </note>
      </measure>
    <measure number="90" width="177.69">
      <note>
        <rest measure="yes"/>
        <duration>7</duration>
        <voice>1</voice>
        </note>
      </measure>
    <measure number="91" width="177.69">
      <note>
        <rest measure="yes"/>
        <duration>7</duration>
        <voice>1</voice>
        </note>
      </measure>
    <measure number="92" width="186.54">
      <note>
        <rest measure="yes"/>
        <duration>7</duration>
        <voice>1</voice>
        </note>
      <barline location="right">
        <bar-style>light-heavy</bar-style>
        </barline>
      </measure>
    </part>
  <part id="P2">
    <measure number="1" width="274.22">
      <print>
        <staff-layout number="1">
          <staff-distance>34.40</staff-distance>
          </staff-layout>
        </print>
      <attributes>
        <divisions>2</divisions>
        <key>
          <fifths>0</fifths>
          </key>
        <time>
          <beats>7</beats>
          <beat-type>8</beat-type>
          </time>
        <clef>
          <sign>percussion</sign>
          <line>2</line>
          </clef>
        <staff-details>
          <staff-lines>1</staff-lines>
          </staff-details>
        </attributes>
      <note default-x="80.52" default-y="-89.40">
        <unpitched>
          <display-step>F</display-step>
          <display-octave>4</display-octave>
          </unpitched>
        <duration>1</duration>
        <instrument id="P2-I77"/>
        <voice>1</voice>
        <type>eighth</type>
        <stem>up</stem>
        <beam number="1">begin</beam>
        <notations>
          <articulations>
            <accent/>
            </articulations>
          </notations>
        </note>
      <note default-x="107.83" default-y="-99.40">
        <unpitched>
          <display-step>D</display-step>
          <display-octave>4</display-octave>
          </unpitched>
        <duration>1</duration>
        <instrument id="P2-I78"/>
        <voice>1</voice>
        <type>eighth</type>
        <stem>up</stem>
        <beam number="1">continue</beam>
        </note>
      <note default-x="135.15" default-y="-99.40">
        <unpitched>
          <display-step>D</display-step>
          <display-octave>4</display-octave>
          </unpitched>
        <duration>1</duration>
        <instrument id="P2-I78"/>
        <voice>1</voice>
        <type>eighth</type>
        <stem>up</stem>
        <beam number="1">end</beam>
        </note>
      <note default-x="162.47" default-y="-99.40">
        <unpitched>
          <display-step>D</display-step>
          <display-octave>4</display-octave>
          </unpitched>
        <duration>1</duration>
        <instrument id="P2-I78"/>
        <voice>1</voice>
        <type>eighth</type>
        <stem>up</stem>
        <beam number="1">begin</beam>
        <notations>
          <articulations>
            <accent/>
            </articulations>
          </notations>
        </note>
      <note default-x="189.78" default-y="-99.40">
        <unpitched>
          <display-step>D</display-step>
          <display-octave>4</display-octave>
          </unpitched>
        <duration>1</duration>
        <instrument id="P2-I78"/>
        <voice>1</voice>
        <type>eighth</type>
        <stem>up</stem>
        <beam number="1">end</beam>
        </note>
      <note default-x="217.10" default-y="-99.40">
        <unpitched>
          <display-step>D</display-step>
          <display-octave>4</display-octave>
          </unpitched>
        <duration>1</duration>
        <instrument id="P2-I78"/>
        <voice>1</voice>
        <type>eighth</type>
        <stem>up</stem>
        <beam number="1">begin</beam>
        <notations>
          <articulations>
            <accent/>
            </articulations>
          </notations>
        </note>
      <note default-x="244.42" default-y="-99.40">
        <unpitched>
          <display-step>D</display-step>
          <display-octave>4</display-octave>
          </unpitched>
        <duration>1</duration>
        <instrument id="P2-I78"/>
        <voice>1</voice>
        <type>eighth</type>
        <stem>up</stem>
        <beam number="1">end</beam>
        </note>
      </measure>
    <measure number="2" width="206.70">
      <forward>
        <duration>7</duration>
        </forward>
      </measure>
    <measure number="3" width="206.70">
      <forward>
        <duration>7</duration>
        </forward>
      </measure>
    <measure number="4" width="206.70">
      <forward>
        <duration>7</duration>
        </forward>
      </measure>
    <measure number="5" width="226.86">
      <print new-system="yes">
        <staff-layout number="1">
          <staff-distance>33.71</staff-distance>
          </staff-layout>
        </print>
      <forward>
        <duration>7</duration>
        </forward>
      </measure>
    <measure number="6" width="179.46">
      <forward>
        <duration>7</duration>
        </forward>
      </measure>
    <measure number="7" width="179.46">
      <forward>
        <duration>7</duration>
        </forward>
      </measure>
    <measure number="8" width="179.46">
      <forward>
        <duration>7</duration>
        </forward>
      </measure>
    <measure number="9" width="179.46">
      <forward>
        <duration>7</duration>
        </forward>
      </measure>
    <measure number="10" width="208.08">
      <print new-system="yes">
        <staff-layout number="1">
          <staff-distance>29.02</staff-distance>
          </staff-layout>
        </print>
      <forward>
        <duration>7</duration>
        </forward>
      </measure>
    <measure number="11" width="160.68">
      <forward>
        <duration>7</duration>
        </forward>
      </measure>
    <measure number="12" width="67.88">
      <forward>
        <duration>7</duration>
        </forward>
      </measure>
    <measure number="13" width="100.77">
      <forward>
        <duration>7</duration>
        </forward>
      </measure>
    <measure number="14" width="67.88">
      <forward>
        <duration>7</duration>
        </forward>
      </measure>
    <measure number="15" width="67.88">
      <forward>
        <duration>7</duration>
        </forward>
      </measure>
    <measure number="16" width="67.88">
      <forward>
        <duration>7</duration>
        </forward>
      </measure>
    <measure number="17" width="67.88">
      <forward>
        <duration>7</duration>
        </forward>
      </measure>
    <measure number="18" width="67.88">
      <forward>
        <duration>7</duration>
        </forward>
      </measure>
    <measure number="19" width="67.88">
      <forward>
        <duration>7</duration>
        </forward>
      </measure>
    <measure number="20" width="289.64">
      <print new-system="yes">
        <staff-layout number="1">
          <staff-distance>15.17</staff-distance>
          </staff-layout>
        </print>
      <forward>
        <duration>7</duration>
        </forward>
      </measure>
    <measure number="21" width="235.19">
      <forward>
        <duration>7</duration>
        </forward>
      </measure>
    <measure number="22" width="202.31">
      <forward>
        <duration>7</duration>
        </forward>
      </measure>
    <measure number="23" width="217.57">
      <forward>
        <duration>7</duration>
        </forward>
      </measure>
    <measure number="24" width="255.28">
      <print new-system="yes">
        <staff-layout number="1">
          <staff-distance>15.17</staff-distance>
          </staff-layout>
        </print>
      <forward>
        <duration>7</duration>
        </forward>
      </measure>
    <measure number="25" width="207.89">
      <forward>
        <duration>7</duration>
        </forward>
      </measure>
    <measure number="26" width="240.77">
      <forward>
        <duration>7</duration>
        </forward>
      </measure>
    <measure number="27" width="240.77">
      <forward>
        <duration>7</duration>
        </forward>
      </measure>
    <measure number="28" width="212.29">
      <print new-page="yes">
        <staff-layout number="1">
          <staff-distance>15.12</staff-distance>
          </staff-layout>
        </print>
      <forward>
        <duration>7</duration>
        </forward>
      </measure>
    <measure number="29" width="164.90">
      <forward>
        <duration>7</duration>
        </forward>
      </measure>
    <measure number="30" width="204.84">
      <forward>
        <duration>7</duration>
        </forward>
      </measure>
    <measure number="31" width="197.79">
      <forward>
        <duration>7</duration>
        </forward>
      </measure>
    <measure number="32" width="164.90">
      <forward>
        <duration>7</duration>
        </forward>
      </measure>
    <measure number="33" width="214.20">
      <print new-system="yes">
        <staff-layout number="1">
          <staff-distance>20.86</staff-distance>
          </staff-layout>
        </print>
      <forward>
        <duration>7</duration>
        </forward>
      </measure>
    <measure number="34" width="166.80">
      <forward>
        <duration>7</duration>
        </forward>
      </measure>
    <measure number="35" width="166.80">
      <forward>
        <duration>7</duration>
        </forward>
      </measure>
    <measure number="36" width="246.26">
      <attributes>
        <time>
          <beats>6</beats>
          <beat-type>8</beat-type>
          </time>
        </attributes>
      <note default-x="35.02" default-y="-75.86">
        <unpitched>
          <display-step>F</display-step>
          <display-octave>4</display-octave>
          </unpitched>
        <duration>1</duration>
        <instrument id="P2-I77"/>
        <voice>1</voice>
        <type>eighth</type>
        <stem>up</stem>
        <beam number="1">begin</beam>
        <notations>
          <articulations>
            <accent/>
            </articulations>
          </notations>
        </note>
      <note default-x="69.93" default-y="-85.86">
        <unpitched>
          <display-step>D</display-step>
          <display-octave>4</display-octave>
          </unpitched>
        <duration>1</duration>
        <instrument id="P2-I78"/>
        <voice>1</voice>
        <type>eighth</type>
        <stem>up</stem>
        <beam number="1">continue</beam>
        </note>
      <note default-x="104.83" default-y="-85.86">
        <unpitched>
          <display-step>D</display-step>
          <display-octave>4</display-octave>
          </unpitched>
        <duration>1</duration>
        <instrument id="P2-I78"/>
        <voice>1</voice>
        <type>eighth</type>
        <stem>up</stem>
        <beam number="1">end</beam>
        </note>
      <note default-x="139.74" default-y="-85.86">
        <unpitched>
          <display-step>D</display-step>
          <display-octave>4</display-octave>
          </unpitched>
        <duration>1</duration>
        <instrument id="P2-I78"/>
        <voice>1</voice>
        <type>eighth</type>
        <stem>up</stem>
        <beam number="1">begin</beam>
        </note>
      <note default-x="174.64" default-y="-85.86">
        <unpitched>
          <display-step>D</display-step>
          <display-octave>4</display-octave>
          </unpitched>
        <duration>1</duration>
        <instrument id="P2-I78"/>
        <voice>1</voice>
        <type>eighth</type>
        <stem>up</stem>
        <beam number="1">continue</beam>
        </note>
      <note default-x="209.55" default-y="-85.86">
        <unpitched>
          <display-step>D</display-step>
          <display-octave>4</display-octave>
          </unpitched>
        <duration>1</duration>
        <instrument id="P2-I78"/>
        <voice>1</voice>
        <type>eighth</type>
        <stem>up</stem>
        <beam number="1">end</beam>
        </note>
      </measure>
    <measure number="37" width="150.66">
      <forward>
        <duration>6</duration>
        </forward>
      </measure>
    <measure number="38" width="107.22">
      <print new-system="yes">
        <staff-layout number="1">
          <staff-distance>15.12</staff-distance>
          </staff-layout>
        </print>
      <forward>
        <duration>6</duration>
        </forward>
      </measure>
    <measure number="39" width="59.82">
      <forward>
        <duration>6</duration>
        </forward>
      </measure>
    <measure number="40" width="59.82">
      <forward>
        <duration>6</duration>
        </forward>
      </measure>
    <measure number="41" width="59.82">
      <forward>
        <duration>6</duration>
        </forward>
      </measure>
    <measure number="42" width="59.82">
      <forward>
        <duration>6</duration>
        </forward>
      </measure>
    <measure number="43" width="59.82">
      <forward>
        <duration>6</duration>
        </forward>
      </measure>
    <measure number="44" width="59.82">
      <forward>
        <duration>6</duration>
        </forward>
      </measure>
    <measure number="45" width="59.82">
      <forward>
        <duration>6</duration>
        </forward>
      </measure>
    <measure number="46" width="59.82">
      <forward>
        <duration>6</duration>
        </forward>
      </measure>
    <measure number="47" width="59.82">
      <forward>
        <duration>6</duration>
        </forward>
      </measure>
    <measure number="48" width="59.82">
      <forward>
        <duration>6</duration>
        </forward>
      </measure>
    <measure number="49" width="59.82">
      <forward>
        <duration>6</duration>
        </forward>
      </measure>
    <measure number="50" width="59.82">
      <forward>
        <duration>6</duration>
        </forward>
      </measure>
    <measure number="51" width="59.82">
      <forward>
        <duration>6</duration>
        </forward>
      </measure>
    <measure number="52" width="59.82">
      <forward>
        <duration>6</duration>
        </forward>
      </measure>
    <measure number="53" width="226.86">
      <print new-system="yes">
        <staff-layout number="1">
          <staff-distance>15.12</staff-distance>
          </staff-layout>
        </print>
      <forward>
        <duration>6</duration>
        </forward>
      </measure>
    <measure number="54" width="179.46">
      <forward>
        <duration>6</duration>
        </forward>
      </measure>
    <measure number="55" width="179.46">
      <forward>
        <duration>6</duration>
        </forward>
      </measure>
    <measure number="56" width="179.46">
      <forward>
        <duration>6</duration>
        </forward>
      </measure>
    <measure number="57" width="179.46">
      <forward>
        <duration>6</duration>
        </forward>
      </measure>
    <measure number="58" width="226.86">
      <print new-system="yes">
        <staff-layout number="1">
          <staff-distance>15.12</staff-distance>
          </staff-layout>
        </print>
      <forward>
        <duration>6</duration>
        </forward>
      </measure>
    <measure number="59" width="179.46">
      <forward>
        <duration>6</duration>
        </forward>
      </measure>
    <measure number="60" width="179.46">
      <forward>
        <duration>6</duration>
        </forward>
      </measure>
    <measure number="61" width="179.46">
      <forward>
        <duration>6</duration>
        </forward>
      </measure>
    <measure number="62" width="179.46">
      <forward>
        <duration>6</duration>
        </forward>
      </measure>
    <measure number="63" width="226.86">
      <print new-system="yes">
        <staff-layout number="1">
          <staff-distance>15.12</staff-distance>
          </staff-layout>
        </print>
      <forward>
        <duration>6</duration>
        </forward>
      </measure>
    <measure number="64" width="179.46">
      <forward>
        <duration>6</duration>
        </forward>
      </measure>
    <measure number="65" width="179.46">
      <forward>
        <duration>6</duration>
        </forward>
      </measure>
    <measure number="66" width="179.46">
      <forward>
        <duration>6</duration>
        </forward>
      </measure>
    <measure number="67" width="179.46">
      <forward>
        <duration>6</duration>
        </forward>
      </measure>
    <measure number="68" width="191.81">
      <print new-page="yes">
        <staff-layout number="1">
          <staff-distance>26.03</staff-distance>
          </staff-layout>
        </print>
      <forward>
        <duration>6</duration>
        </forward>
      </measure>
    <measure number="69" width="274.34">
      <attributes>
        <time>
          <beats>7</beats>
          <beat-type>8</beat-type>
          </time>
        </attributes>
      <note default-x="35.02" default-y="-81.03">
        <unpitched>
          <display-step>F</display-step>
          <display-octave>4</display-octave>
          </unpitched>
        <duration>1</duration>
        <instrument id="P2-I77"/>
        <voice>1</voice>
        <type>eighth</type>
        <stem>up</stem>
        <beam number="1">begin</beam>
        <notations>
          <articulations>
            <accent/>
            </articulations>
          </notations>
        </note>
      <note default-x="68.95" default-y="-91.03">
        <unpitched>
          <display-step>D</display-step>
          <display-octave>4</display-octave>
          </unpitched>
        <duration>1</duration>
        <instrument id="P2-I78"/>
        <voice>1</voice>
        <type>eighth</type>
        <stem>up</stem>
        <beam number="1">continue</beam>
        </note>
      <note default-x="102.88" default-y="-91.03">
        <unpitched>
          <display-step>D</display-step>
          <display-octave>4</display-octave>
          </unpitched>
        <duration>1</duration>
        <instrument id="P2-I78"/>
        <voice>1</voice>
        <type>eighth</type>
        <stem>up</stem>
        <beam number="1">end</beam>
        </note>
      <note default-x="136.81" default-y="-91.03">
        <unpitched>
          <display-step>D</display-step>
          <display-octave>4</display-octave>
          </unpitched>
        <duration>1</duration>
        <instrument id="P2-I78"/>
        <voice>1</voice>
        <type>eighth</type>
        <stem>up</stem>
        <beam number="1">begin</beam>
        <notations>
          <articulations>
            <accent/>
            </articulations>
          </notations>
        </note>
      <note default-x="170.75" default-y="-91.03">
        <unpitched>
          <display-step>D</display-step>
          <display-octave>4</display-octave>
          </unpitched>
        <duration>1</duration>
        <instrument id="P2-I78"/>
        <voice>1</voice>
        <type>eighth</type>
        <stem>up</stem>
        <beam number="1">end</beam>
        </note>
      <note default-x="204.68" default-y="-91.03">
        <unpitched>
          <display-step>D</display-step>
          <display-octave>4</display-octave>
          </unpitched>
        <duration>1</duration>
        <instrument id="P2-I78"/>
        <voice>1</voice>
        <type>eighth</type>
        <stem>up</stem>
        <beam number="1">begin</beam>
        <notations>
          <articulations>
            <accent/>
            </articulations>
          </notations>
        </note>
      <note default-x="238.61" default-y="-91.03">
        <unpitched>
          <display-step>D</display-step>
          <display-octave>4</display-octave>
          </unpitched>
        <duration>1</duration>
        <instrument id="P2-I78"/>
        <voice>1</voice>
        <type>eighth</type>
        <stem>up</stem>
        <beam number="1">end</beam>
        </note>
      </measure>
    <measure number="70" width="159.52">
      <forward>
        <duration>7</duration>
        </forward>
      </measure>
    <measure number="71" width="159.52">
      <forward>
        <duration>7</duration>
        </forward>
      </measure>
    <measure number="72" width="159.52">
      <forward>
        <duration>7</duration>
        </forward>
      </measure>
    <measure number="73" width="226.86">
      <print new-system="yes">
        <staff-layout number="1">
          <staff-distance>26.03</staff-distance>
          </staff-layout>
        </print>
      <forward>
        <duration>7</duration>
        </forward>
      </measure>
    <measure number="74" width="179.46">
      <forward>
        <duration>7</duration>
        </forward>
      </measure>
    <measure number="75" width="179.46">
      <forward>
        <duration>7</duration>
        </forward>
      </measure>
    <measure number="76" width="179.46">
      <forward>
        <duration>7</duration>
        </forward>
      </measure>
    <measure number="77" width="179.46">
      <forward>
        <duration>7</duration>
        </forward>
      </measure>
    <measure number="78" width="226.86">
      <print new-system="yes">
        <staff-layout number="1">
          <staff-distance>26.03</staff-distance>
          </staff-layout>
        </print>
      <forward>
        <duration>7</duration>
        </forward>
      </measure>
    <measure number="79" width="179.46">
      <forward>
        <duration>7</duration>
        </forward>
      </measure>
    <measure number="80" width="179.46">
      <forward>
        <duration>7</duration>
        </forward>
      </measure>
    <measure number="81" width="179.46">
      <forward>
        <duration>7</duration>
        </forward>
      </measure>
    <measure number="82" width="179.46">
      <forward>
        <duration>7</duration>
        </forward>
      </measure>
    <measure number="83" width="226.86">
      <print new-system="yes">
        <staff-layout number="1">
          <staff-distance>26.03</staff-distance>
          </staff-layout>
        </print>
      <forward>
        <duration>7</duration>
        </forward>
      </measure>
    <measure number="84" width="179.46">
      <forward>
        <duration>7</duration>
        </forward>
      </measure>
    <measure number="85" width="179.46">
      <forward>
        <duration>7</duration>
        </forward>
      </measure>
    <measure number="86" width="179.46">
      <forward>
        <duration>7</duration>
        </forward>
      </measure>
    <measure number="87" width="179.46">
      <forward>
        <duration>7</duration>
        </forward>
      </measure>
    <measure number="88" width="225.09">
      <print new-system="yes">
        <staff-layout number="1">
          <staff-distance>26.03</staff-distance>
          </staff-layout>
        </print>
      <forward>
        <duration>7</duration>
        </forward>
      </measure>
    <measure number="89" width="177.69">
      <forward>
        <duration>7</duration>
        </forward>
      </measure>
    <measure number="90" width="177.69">
      <forward>
        <duration>7</duration>
        </forward>
      </measure>
    <measure number="91" width="177.69">
      <forward>
        <duration>7</duration>
        </forward>
      </measure>
    <measure number="92" width="186.54">
      <forward>
        <duration>7</duration>
        </forward>
      <barline location="right">
        <bar-style>light-heavy</bar-style>
        </barline>
      </measure>
    </part>
  <part id="P3">
    <measure number="1" width="274.22">
      <print>
        <staff-layout number="1">
          <staff-distance>29.31</staff-distance>
          </staff-layout>
        </print>
      <attributes>
        <divisions>2</divisions>
        <key>
          <fifths>0</fifths>
          </key>
        <time>
          <beats>7</beats>
          <beat-type>8</beat-type>
          </time>
        <clef>
          <sign>percussion</sign>
          <line>2</line>
          </clef>
        <staff-details>
          <staff-lines>1</staff-lines>
          </staff-details>
        </attributes>
      <note default-x="80.52" default-y="-163.71">
        <unpitched>
          <display-step>E</display-step>
          <display-octave>4</display-octave>
          </unpitched>
        <duration>3</duration>
        <instrument id="P3-I55"/>
        <voice>1</voice>
        <type>quarter</type>
        <dot/>
        <stem>down</stem>
        <notations>
          <articulations>
            <accent/>
            </articulations>
          </notations>
        </note>
      <note default-x="162.47" default-y="-163.71">
        <unpitched>
          <display-step>E</display-step>
          <display-octave>4</display-octave>
          </unpitched>
        <duration>2</duration>
        <instrument id="P3-I55"/>
        <voice>1</voice>
        <type>quarter</type>
        <stem>down</stem>
        </note>
      <note default-x="217.10" default-y="-163.71">
        <unpitched>
          <display-step>E</display-step>
          <display-octave>4</display-octave>
          </unpitched>
        <duration>2</duration>
        <instrument id="P3-I55"/>
        <voice>1</voice>
        <type>quarter</type>
        <stem>down</stem>
        </note>
      </measure>
    <measure number="2" width="206.70">
      <forward>
        <duration>7</duration>
        </forward>
      </measure>
    <measure number="3" width="206.70">
      <forward>
        <duration>7</duration>
        </forward>
      </measure>
    <measure number="4" width="206.70">
      <forward>
        <duration>7</duration>
        </forward>
      </measure>
    <measure number="5" width="226.86">
      <print new-system="yes">
        <staff-layout number="1">
          <staff-distance>29.31</staff-distance>
          </staff-layout>
        </print>
      <forward>
        <duration>7</duration>
        </forward>
      </measure>
    <measure number="6" width="179.46">
      <forward>
        <duration>7</duration>
        </forward>
      </measure>
    <measure number="7" width="179.46">
      <forward>
        <duration>7</duration>
        </forward>
      </measure>
    <measure number="8" width="179.46">
      <forward>
        <duration>7</duration>
        </forward>
      </measure>
    <measure number="9" width="179.46">
      <forward>
        <duration>7</duration>
        </forward>
      </measure>
    <measure number="10" width="208.08">
      <print new-system="yes">
        <staff-layout number="1">
          <staff-distance>29.31</staff-distance>
          </staff-layout>
        </print>
      <forward>
        <duration>7</duration>
        </forward>
      </measure>
    <measure number="11" width="160.68">
      <forward>
        <duration>7</duration>
        </forward>
      </measure>
    <measure number="12" width="67.88">
      <note>
        <rest measure="yes"/>
        <duration>7</duration>
        <voice>1</voice>
        </note>
      </measure>
    <measure number="13" width="100.77">
      <direction placement="below">
        <direction-type>
          <dynamics default-x="3.25" default-y="-24.54" relative-y="-25.00">
            <mf/>
            </dynamics>
          </direction-type>
        <sound dynamics="88.89"/>
        </direction>
      <note default-x="13.00" default-y="-158.33">
        <unpitched>
          <display-step>E</display-step>
          <display-octave>4</display-octave>
          </unpitched>
        <duration>2</duration>
        <instrument id="P3-I55"/>
        <voice>1</voice>
        <type>quarter</type>
        <stem>down</stem>
        <notations>
          <articulations>
            <accent/>
            </articulations>
          </notations>
        </note>
      <note default-x="37.49" default-y="-158.33">
        <unpitched>
          <display-step>E</display-step>
          <display-octave>4</display-octave>
          </unpitched>
        <duration>2</duration>
        <instrument id="P3-I55"/>
        <voice>1</voice>
        <type>quarter</type>
        <stem>down</stem>
        </note>
      <note default-x="61.98" default-y="-158.33">
        <unpitched>
          <display-step>E</display-step>
          <display-octave>4</display-octave>
          </unpitched>
        <duration>3</duration>
        <instrument id="P3-I55"/>
        <voice>1</voice>
        <type>quarter</type>
        <dot/>
        <stem>down</stem>
        </note>
      </measure>
    <measure number="14" width="67.88">
      <forward>
        <duration>7</duration>
        </forward>
      </measure>
    <measure number="15" width="67.88">
      <forward>
        <duration>7</duration>
        </forward>
      </measure>
    <measure number="16" width="67.88">
      <forward>
        <duration>7</duration>
        </forward>
      </measure>
    <measure number="17" width="67.88">
      <forward>
        <duration>7</duration>
        </forward>
      </measure>
    <measure number="18" width="67.88">
      <forward>
        <duration>7</duration>
        </forward>
      </measure>
    <measure number="19" width="67.88">
      <forward>
        <duration>7</duration>
        </forward>
      </measure>
    <measure number="20" width="289.64">
      <print new-system="yes">
        <staff-layout number="1">
          <staff-distance>29.31</staff-distance>
          </staff-layout>
        </print>
      <note default-x="60.39" default-y="-144.48">
        <unpitched>
          <display-step>E</display-step>
          <display-octave>4</display-octave>
          </unpitched>
        <duration>2</duration>
        <instrument id="P3-I55"/>
        <voice>1</voice>
        <type>quarter</type>
        <stem>down</stem>
        <notations>
          <articulations>
            <accent/>
            </articulations>
          </notations>
        </note>
      <note default-x="123.14" default-y="-144.48">
        <unpitched>
          <display-step>E</display-step>
          <display-octave>4</display-octave>
          </unpitched>
        <duration>1</duration>
        <instrument id="P3-I55"/>
        <voice>1</voice>
        <type>eighth</type>
        <stem>down</stem>
        </note>
      <note default-x="162.35" default-y="-144.48">
        <unpitched>
          <display-step>E</display-step>
          <display-octave>4</display-octave>
          </unpitched>
        <duration>2</duration>
        <instrument id="P3-I55"/>
        <voice>1</voice>
        <type>quarter</type>
        <stem>down</stem>
        </note>
      <note default-x="225.10" default-y="-144.48">
        <unpitched>
          <display-step>E</display-step>
          <display-octave>4</display-octave>
          </unpitched>
        <duration>2</duration>
        <instrument id="P3-I55"/>
        <voice>1</voice>
        <type>quarter</type>
        <stem>down</stem>
        </note>
      </measure>
    <measure number="21" width="235.19">
      <note default-x="13.00" default-y="-144.48">
        <unpitched>
          <display-step>E</display-step>
          <display-octave>4</display-octave>
          </unpitched>
        <duration>3</duration>
        <instrument id="P3-I55"/>
        <voice>1</voice>
        <type>quarter</type>
        <dot/>
        <stem>down</stem>
        <notations>
          <articulations>
            <accent/>
            </articulations>
          </notations>
        </note>
      <note default-x="101.85" default-y="-144.48">
        <unpitched>
          <display-step>E</display-step>
          <display-octave>4</display-octave>
          </unpitched>
        <duration>2</duration>
        <instrument id="P3-I55"/>
        <voice>1</voice>
        <type>quarter</type>
        <stem>down</stem>
        </note>
      <note default-x="167.62" default-y="-144.48">
        <unpitched>
          <display-step>E</display-step>
          <display-octave>4</display-octave>
          </unpitched>
        <duration>2</duration>
        <instrument id="P3-I55"/>
        <voice>1</voice>
        <type>quarter</type>
        <stem>down</stem>
        </note>
      </measure>
    <measure number="22" width="202.31">
      <forward>
        <duration>7</duration>
        </forward>
      </measure>
    <measure number="23" width="217.57">
      <note default-x="13.00" default-y="-144.48">
        <unpitched>
          <display-step>E</display-step>
          <display-octave>4</display-octave>
          </unpitched>
        <duration>6</duration>
        <instrument id="P3-I55"/>
        <voice>1</voice>
        <type>half</type>
        <dot/>
        <stem>down</stem>
        </note>
      <note>
        <rest/>
        <duration>1</duration>
        <voice>1</voice>
        <type>eighth</type>
        </note>
      </measure>
    <measure number="24" width="255.28">
      <print new-system="yes">
        <staff-layout number="1">
          <staff-distance>29.31</staff-distance>
          </staff-layout>
        </print>
      <forward>
        <duration>7</duration>
        </forward>
      </measure>
    <measure number="25" width="207.89">
      <forward>
        <duration>7</duration>
        </forward>
      </measure>
    <measure number="26" width="240.77">
      <note default-x="13.00" default-y="-144.48">
        <unpitched>
          <display-step>E</display-step>
          <display-octave>4</display-octave>
          </unpitched>
        <duration>3</duration>
        <instrument id="P3-I55"/>
        <voice>1</voice>
        <type>quarter</type>
        <dot/>
        <stem>down</stem>
        <notations>
          <articulations>
            <accent/>
            </articulations>
          </notations>
        </note>
      <note default-x="104.10" default-y="-144.48">
        <unpitched>
          <display-step>E</display-step>
          <display-octave>4</display-octave>
          </unpitched>
        <duration>2</duration>
        <instrument id="P3-I55"/>
        <voice>1</voice>
        <type>quarter</type>
        <stem>down</stem>
        </note>
      <note default-x="171.54" default-y="-144.48">
        <unpitched>
          <display-step>E</display-step>
          <display-octave>4</display-octave>
          </unpitched>
        <duration>2</duration>
        <instrument id="P3-I55"/>
        <voice>1</voice>
        <type>quarter</type>
        <stem>down</stem>
        </note>
      </measure>
    <measure number="27" width="240.77">
      <direction placement="below">
        <direction-type>
          <dynamics default-x="3.25" default-y="-24.95" relative-y="-25.00">
            <f/>
            </dynamics>
          </direction-type>
        <sound dynamics="106.67"/>
        </direction>
      <note default-x="13.00" default-y="-144.48">
        <unpitched>
          <display-step>E</display-step>
          <display-octave>4</display-octave>
          </unpitched>
        <duration>2</duration>
        <instrument id="P3-I55"/>
        <voice>1</voice>
        <type>quarter</type>
        <stem>down</stem>
        <notations>
          <articulations>
            <accent/>
            </articulations>
          </notations>
        </note>
      <note default-x="80.44" default-y="-144.48">
        <unpitched>
          <display-step>E</display-step>
          <display-octave>4</display-octave>
          </unpitched>
        <duration>3</duration>
        <instrument id="P3-I55"/>
        <voice>1</voice>
        <type>quarter</type>
        <dot/>
        <stem>down</stem>
        </note>
      <note default-x="171.54" default-y="-144.48">
        <unpitched>
          <display-step>E</display-step>
          <display-octave>4</display-octave>
          </unpitched>
        <duration>2</duration>
        <instrument id="P3-I55"/>
        <voice>1</voice>
        <type>quarter</type>
        <stem>down</stem>
        </note>
      </measure>
    <measure number="28" width="212.29">
      <print new-page="yes">
        <staff-layout number="1">
          <staff-distance>23.79</staff-distance>
          </staff-layout>
        </print>
      <forward>
        <duration>7</duration>
        </forward>
      </measure>
    <measure number="29" width="164.90">
      <forward>
        <duration>7</duration>
        </forward>
      </measure>
    <measure number="30" width="204.84">
      <note default-x="13.00" default-y="-138.91">
        <unpitched>
          <display-step>E</display-step>
          <display-octave>4</display-octave>
          </unpitched>
        <duration>2</duration>
        <instrument id="P3-I55"/>
        <voice>1</voice>
        <type>quarter</type>
        <stem>down</stem>
        <notations>
          <articulations>
            <accent/>
            </articulations>
          </notations>
        </note>
      <note default-x="65.42" default-y="-138.91">
        <unpitched>
          <display-step>E</display-step>
          <display-octave>4</display-octave>
          </unpitched>
        <duration>1</duration>
        <instrument id="P3-I55"/>
        <voice>1</voice>
        <type>eighth</type>
        <stem>down</stem>
        </note>
      <note default-x="98.19" default-y="-138.91">
        <unpitched>
          <display-step>E</display-step>
          <display-octave>4</display-octave>
          </unpitched>
        <duration>2</duration>
        <instrument id="P3-I55"/>
        <voice>1</voice>
        <type>quarter</type>
        <stem>down</stem>
        </note>
      <note default-x="150.61" default-y="-138.91">
        <unpitched>
          <display-step>E</display-step>
          <display-octave>4</display-octave>
          </unpitched>
        <duration>2</duration>
        <instrument id="P3-I55"/>
        <voice>1</voice>
        <type>quarter</type>
        <stem>down</stem>
        </note>
      </measure>
    <measure number="31" width="197.79">
      <direction placement="below">
        <direction-type>
          <dynamics default-x="3.25" default-y="-24.54" relative-y="-25.00">
            <mf/>
            </dynamics>
          </direction-type>
        <sound dynamics="88.89"/>
        </direction>
      <note default-x="13.00" default-y="-138.91">
        <unpitched>
          <display-step>E</display-step>
          <display-octave>4</display-octave>
          </unpitched>
        <duration>3</duration>
        <instrument id="P3-I55"/>
        <voice>1</voice>
        <type>quarter</type>
        <dot/>
        <stem>down</stem>
        <notations>
          <articulations>
            <accent/>
            </articulations>
          </notations>
        </note>
      <note default-x="86.77" default-y="-138.91">
        <unpitched>
          <display-step>E</display-step>
          <display-octave>4</display-octave>
          </unpitched>
        <duration>2</duration>
        <instrument id="P3-I55"/>
        <voice>1</voice>
        <type>quarter</type>
        <stem>down</stem>
        </note>
      <note default-x="141.38" default-y="-138.91">
        <unpitched>
          <display-step>E</display-step>
          <display-octave>4</display-octave>
          </unpitched>
        <duration>2</duration>
        <instrument id="P3-I55"/>
        <voice>1</voice>
        <type>quarter</type>
        <stem>down</stem>
        </note>
      </measure>
    <measure number="32" width="164.90">
      <forward>
        <duration>7</duration>
        </forward>
      </measure>
    <measure number="33" width="214.20">
      <print new-system="yes">
        <staff-layout number="1">
          <staff-distance>23.79</staff-distance>
          </staff-layout>
        </print>
      <forward>
        <duration>7</duration>
        </forward>
      </measure>
    <measure number="34" width="166.80">
      <forward>
        <duration>7</duration>
        </forward>
      </measure>
    <measure number="35" width="166.80">
      <forward>
        <duration>7</duration>
        </forward>
      </measure>
    <measure number="36" width="246.26">
      <attributes>
        <time>
          <beats>6</beats>
          <beat-type>8</beat-type>
          </time>
        </attributes>
      <note default-x="35.02" default-y="-144.65">
        <unpitched>
          <display-step>E</display-step>
          <display-octave>4</display-octave>
          </unpitched>
        <duration>3</duration>
        <instrument id="P3-I55"/>
        <voice>1</voice>
        <type>quarter</type>
        <dot/>
        <stem>down</stem>
        <notations>
          <articulations>
            <accent/>
            </articulations>
          </notations>
        </note>
      <note default-x="139.74" default-y="-144.65">
        <unpitched>
          <display-step>E</display-step>
          <display-octave>4</display-octave>
          </unpitched>
        <duration>3</duration>
        <instrument id="P3-I55"/>
        <voice>1</voice>
        <type>quarter</type>
        <dot/>
        <stem>down</stem>
        </note>
      </measure>
    <measure number="37" width="150.66">
      <forward>
        <duration>6</duration>
        </forward>
      </measure>
    <measure number="38" width="107.22">
      <print new-system="yes">
        <staff-layout number="1">
          <staff-distance>23.79</staff-distance>
          </staff-layout>
        </print>
      <forward>
        <duration>6</duration>
        </forward>
      </measure>
    <measure number="39" width="59.82">
      <forward>
        <duration>6</duration>
        </forward>
      </measure>
    <measure number="40" width="59.82">
      <forward>
        <duration>6</duration>
        </forward>
      </measure>
    <measure number="41" width="59.82">
      <forward>
        <duration>6</duration>
        </forward>
      </measure>
    <measure number="42" width="59.82">
      <forward>
        <duration>6</duration>
        </forward>
      </measure>
    <measure number="43" width="59.82">
      <forward>
        <duration>6</duration>
        </forward>
      </measure>
    <measure number="44" width="59.82">
      <forward>
        <duration>6</duration>
        </forward>
      </measure>
    <measure number="45" width="59.82">
      <forward>
        <duration>6</duration>
        </forward>
      </measure>
    <measure number="46" width="59.82">
      <forward>
        <duration>6</duration>
        </forward>
      </measure>
    <measure number="47" width="59.82">
      <forward>
        <duration>6</duration>
        </forward>
      </measure>
    <measure number="48" width="59.82">
      <forward>
        <duration>6</duration>
        </forward>
      </measure>
    <measure number="49" width="59.82">
      <forward>
        <duration>6</duration>
        </forward>
      </measure>
    <measure number="50" width="59.82">
      <forward>
        <duration>6</duration>
        </forward>
      </measure>
    <measure number="51" width="59.82">
      <forward>
        <duration>6</duration>
        </forward>
      </measure>
    <measure number="52" width="59.82">
      <forward>
        <duration>6</duration>
        </forward>
      </measure>
    <measure number="53" width="226.86">
      <print new-system="yes">
        <staff-layout number="1">
          <staff-distance>23.79</staff-distance>
          </staff-layout>
        </print>
      <forward>
        <duration>6</duration>
        </forward>
      </measure>
    <measure number="54" width="179.46">
      <note>
        <rest measure="yes"/>
        <duration>6</duration>
        <voice>1</voice>
        </note>
      </measure>
    <measure number="55" width="179.46">
      <forward>
        <duration>6</duration>
        </forward>
      </measure>
    <measure number="56" width="179.46">
      <forward>
        <duration>6</duration>
        </forward>
      </measure>
    <measure number="57" width="179.46">
      <forward>
        <duration>6</duration>
        </forward>
      </measure>
    <measure number="58" width="226.86">
      <print new-system="yes">
        <staff-layout number="1">
          <staff-distance>23.79</staff-distance>
          </staff-layout>
        </print>
      <forward>
        <duration>6</duration>
        </forward>
      </measure>
    <measure number="59" width="179.46">
      <forward>
        <duration>6</duration>
        </forward>
      </measure>
    <measure number="60" width="179.46">
      <forward>
        <duration>6</duration>
        </forward>
      </measure>
    <measure number="61" width="179.46">
      <forward>
        <duration>6</duration>
        </forward>
      </measure>
    <measure number="62" width="179.46">
      <forward>
        <duration>6</duration>
        </forward>
      </measure>
    <measure number="63" width="226.86">
      <print new-system="yes">
        <staff-layout number="1">
          <staff-distance>23.79</staff-distance>
          </staff-layout>
        </print>
      <forward>
        <duration>6</duration>
        </forward>
      </measure>
    <measure number="64" width="179.46">
      <forward>
        <duration>6</duration>
        </forward>
      </measure>
    <measure number="65" width="179.46">
      <forward>
        <duration>6</duration>
        </forward>
      </measure>
    <measure number="66" width="179.46">
      <forward>
        <duration>6</duration>
        </forward>
      </measure>
    <measure number="67" width="179.46">
      <forward>
        <duration>6</duration>
        </forward>
      </measure>
    <measure number="68" width="191.81">
      <print new-page="yes">
        <staff-layout number="1">
          <staff-distance>38.36</staff-distance>
          </staff-layout>
        </print>
      <forward>
        <duration>6</duration>
        </forward>
      </measure>
    <measure number="69" width="274.34">
      <attributes>
        <time>
          <beats>7</beats>
          <beat-type>8</beat-type>
          </time>
        </attributes>
      <note>
        <rest measure="yes"/>
        <duration>7</duration>
        <voice>1</voice>
        </note>
      </measure>
    <measure number="70" width="159.52">
      <note>
        <rest measure="yes"/>
        <duration>7</duration>
        <voice>1</voice>
        </note>
      </measure>
    <measure number="71" width="159.52">
      <note>
        <rest measure="yes"/>
        <duration>7</duration>
        <voice>1</voice>
        </note>
      </measure>
    <measure number="72" width="159.52">
      <note>
        <rest measure="yes"/>
        <duration>7</duration>
        <voice>1</voice>
        </note>
      </measure>
    <measure number="73" width="226.86">
      <print new-system="yes">
        <staff-layout number="1">
          <staff-distance>38.36</staff-distance>
          </staff-layout>
        </print>
      <note>
        <rest measure="yes"/>
        <duration>7</duration>
        <voice>1</voice>
        </note>
      </measure>
    <measure number="74" width="179.46">
      <note>
        <rest measure="yes"/>
        <duration>7</duration>
        <voice>1</voice>
        </note>
      </measure>
    <measure number="75" width="179.46">
      <note>
        <rest measure="yes"/>
        <duration>7</duration>
        <voice>1</voice>
        </note>
      </measure>
    <measure number="76" width="179.46">
      <note>
        <rest measure="yes"/>
        <duration>7</duration>
        <voice>1</voice>
        </note>
      </measure>
    <measure number="77" width="179.46">
      <note>
        <rest measure="yes"/>
        <duration>7</duration>
        <voice>1</voice>
        </note>
      </measure>
    <measure number="78" width="226.86">
      <print new-system="yes">
        <staff-layout number="1">
          <staff-distance>38.36</staff-distance>
          </staff-layout>
        </print>
      <note>
        <rest measure="yes"/>
        <duration>7</duration>
        <voice>1</voice>
        </note>
      </measure>
    <measure number="79" width="179.46">
      <note>
        <rest measure="yes"/>
        <duration>7</duration>
        <voice>1</voice>
        </note>
      </measure>
    <measure number="80" width="179.46">
      <note>
        <rest measure="yes"/>
        <duration>7</duration>
        <voice>1</voice>
        </note>
      </measure>
    <measure number="81" width="179.46">
      <note>
        <rest measure="yes"/>
        <duration>7</duration>
        <voice>1</voice>
        </note>
      </measure>
    <measure number="82" width="179.46">
      <note>
        <rest measure="yes"/>
        <duration>7</duration>
        <voice>1</voice>
        </note>
      </measure>
    <measure number="83" width="226.86">
      <print new-system="yes">
        <staff-layout number="1">
          <staff-distance>38.36</staff-distance>
          </staff-layout>
        </print>
      <note>
        <rest measure="yes"/>
        <duration>7</duration>
        <voice>1</voice>
        </note>
      </measure>
    <measure number="84" width="179.46">
      <note>
        <rest measure="yes"/>
        <duration>7</duration>
        <voice>1</voice>
        </note>
      </measure>
    <measure number="85" width="179.46">
      <note>
        <rest measure="yes"/>
        <duration>7</duration>
        <voice>1</voice>
        </note>
      </measure>
    <measure number="86" width="179.46">
      <note>
        <rest measure="yes"/>
        <duration>7</duration>
        <voice>1</voice>
        </note>
      </measure>
    <measure number="87" width="179.46">
      <note>
        <rest measure="yes"/>
        <duration>7</duration>
        <voice>1</voice>
        </note>
      </measure>
    <measure number="88" width="225.09">
      <print new-system="yes">
        <staff-layout number="1">
          <staff-distance>38.36</staff-distance>
          </staff-layout>
        </print>
      <note>
        <rest measure="yes"/>
        <duration>7</duration>
        <voice>1</voice>
        </note>
      </measure>
    <measure number="89" width="177.69">
      <note>
        <rest measure="yes"/>
        <duration>7</duration>
        <voice>1</voice>
        </note>
      </measure>
    <measure number="90" width="177.69">
      <note>
        <rest measure="yes"/>
        <duration>7</duration>
        <voice>1</voice>
        </note>
      </measure>
    <measure number="91" width="177.69">
      <note>
        <rest measure="yes"/>
        <duration>7</duration>
        <voice>1</voice>
        </note>
      </measure>
    <measure number="92" width="186.54">
      <note>
        <rest measure="yes"/>
        <duration>7</duration>
        <voice>1</voice>
        </note>
      <barline location="right">
        <bar-style>light-heavy</bar-style>
        </barline>
      </measure>
    </part>
  </score-partwise>
